,Europe-Italy-nan,Europe-Belgium-nan,Europe-Luxembourg-nan,Europe-Ireland-nan,Europe-Germany-nan,Europe-Bulgaria-nan,Europe-Czechia-nan,Europe-France-nan,Europe-Denmark-nan,Europe-Estonia-nan,Europe-Croatia-nan,Europe-Cyprus-nan,Europe-Latvia-nan,Europe-Lithuania-nan,Europe-Malta-nan,Europe-Slovenia-nan,Europe-Slovakia-nan,Europe-Finland-nan,Europe-Sweden-nan,Europe-Spain-nan,Europe-Switzerland-nan,Europe-Austria-nan,Europe-Greece-nan,Europe-Norway-nan,Europe-Romania-nan,Europe-Netherlands-nan,Europe-Monaco-nan,Europe-Portugal-nan,Europe-Andorra-nan,Europe-Hungary-nan,Europe-Liechtenstein-nan,Europe-Poland-nan,Europe-Bosnia and Herzegovina-nan,Europe-Serbia-nan,Europe-United Kingdom-nan,Asia-China-Hubei,Asia-China-Guangdong,Asia-China-Henan,Asia-China-Zhejiang,Asia-China-Hunan,Asia-China-Anhui,Asia-China-Jiangxi,Asia-China-Shandong,Asia-China-Jiangsu,Asia-China-Chongqing,Asia-China-Sichuan,Asia-China-Heilongjiang,Asia-China-Beijing,Asia-China-Shanghai,Asia-China-Hebei,Asia-China-Fujian,Asia-China-Guangxi,Asia-China-Shaanxi,Asia-China-Yunnan,Asia-China-Hainan,Asia-China-Guizhou,Asia-China-Tianjin,Asia-China-Shanxi,Asia-China-Gansu,Asia-China-Hong Kong,Asia-China-Liaoning,Asia-China-Jilin,Asia-China-Xinjiang,Asia-China-Inner Mongolia,Asia-China-Ningxia,Asia-China-Qinghai,Asia-China-Macau,Asia-China-Tibet,Total-Europe-All,Total-Asia-China
2020-01-23,0,0,0,0,0,0,0,0,0,0,0,0,0,0,0,0,0,0,0,0,0,0,0,0,0,0,0,0,0,0,0,0,0,0,0,17,0,0,0,0,0,0,0,0,0,0,0,0,0,1,0,0,0,0,0,0,0,0,0,0,0,0,0,0,0,0,0,0,0.0,18.0
2020-01-24,0,0,0,0,0,0,0,0,0,0,0,0,0,0,0,0,0,0,0,0,0,0,0,0,0,0,0,0,0,0,0,0,0,0,0,24,0,0,0,0,0,0,0,0,0,0,1,0,0,1,0,0,0,0,0,0,0,0,0,0,0,0,0,0,0,0,0,0,0.0,26.0
2020-01-25,0,0,0,0,0,0,0,0,0,0,0,0,0,0,0,0,0,0,0,0,0,0,0,0,0,0,0,0,0,0,0,0,0,0,0,40,0,0,0,0,0,0,0,0,0,0,1,0,0,1,0,0,0,0,0,0,0,0,0,0,0,0,0,0,0,0,0,0,0.0,42.0
2020-01-26,0,0,0,0,0,0,0,0,0,0,0,0,0,0,0,0,0,0,0,0,0,0,0,0,0,0,0,0,0,0,0,0,0,0,0,52,0,1,0,0,0,0,0,0,0,0,1,0,1,1,0,0,0,0,0,0,0,0,0,0,0,0,0,0,0,0,0,0,0.0,56.0
2020-01-27,0,0,0,0,0,0,0,0,0,0,0,0,0,0,0,0,0,0,0,0,0,0,0,0,0,0,0,0,0,0,0,0,0,0,0,76,0,1,0,0,0,0,0,0,0,0,1,1,1,1,0,0,0,0,1,0,0,0,0,0,0,0,0,0,0,0,0,0,0.0,82.0
2020-01-28,0,0,0,0,0,0,0,0,0,0,0,0,0,0,0,0,0,0,0,0,0,0,0,0,0,0,0,0,0,0,0,0,0,0,0,125,0,1,0,0,0,0,0,0,0,0,1,1,1,1,0,0,0,0,1,0,0,0,0,0,0,0,0,0,0,0,0,0,0.0,131.0
2020-01-29,0,0,0,0,0,0,0,0,0,0,0,0,0,0,0,0,0,0,0,0,0,0,0,0,0,0,0,0,0,0,0,0,0,0,0,125,0,2,0,0,0,0,0,0,0,1,1,1,1,1,0,0,0,0,1,0,0,0,0,0,0,0,0,0,0,0,0,0,0.0,133.0
2020-01-30,0,0,0,0,0,0,0,0,0,0,0,0,0,0,0,0,0,0,0,0,0,0,0,0,0,0,0,0,0,0,0,0,0,0,0,162,0,2,0,0,0,0,0,0,0,1,2,1,1,1,0,0,0,0,1,0,0,0,0,0,0,0,0,0,0,0,0,0,0.0,171.0
2020-01-31,0,0,0,0,0,0,0,0,0,0,0,0,0,0,0,0,0,0,0,0,0,0,0,0,0,0,0,0,0,0,0,0,0,0,0,204,0,2,0,0,0,0,0,0,0,1,2,1,1,1,0,0,0,0,1,0,0,0,0,0,0,0,0,0,0,0,0,0,0.0,213.0
2020-02-01,0,0,0,0,0,0,0,0,0,0,0,0,0,0,0,0,0,0,0,0,0,0,0,0,0,0,0,0,0,0,0,0,0,0,0,249,0,2,0,0,0,0,0,0,1,1,2,1,1,1,0,0,0,0,1,0,0,0,0,0,0,0,0,0,0,0,0,0,0.0,259.0
2020-02-02,0,0,0,0,0,0,0,0,0,0,0,0,0,0,0,0,0,0,0,0,0,0,0,0,0,0,0,0,0,0,0,0,0,0,0,350,0,2,0,0,0,0,0,0,2,1,2,1,1,1,0,0,0,0,1,0,0,0,0,0,0,0,0,0,0,0,0,0,0.0,361.0
2020-02-03,0,0,0,0,0,0,0,0,0,0,0,0,0,0,0,0,0,0,0,0,0,0,0,0,0,0,0,0,0,0,0,0,0,0,0,414,0,2,0,0,0,0,0,0,2,1,2,1,1,1,0,0,0,0,1,0,0,0,0,0,0,0,0,0,0,0,0,0,0.0,425.0
2020-02-04,0,0,0,0,0,0,0,0,0,0,0,0,0,0,0,0,0,0,0,0,0,0,0,0,0,0,0,0,0,0,0,0,0,0,0,479,0,2,0,0,0,0,0,0,2,1,2,1,1,1,0,0,0,0,1,0,0,0,0,1,0,0,0,0,0,0,0,0,0.0,491.0
2020-02-05,0,0,0,0,0,0,0,0,0,0,0,0,0,0,0,0,0,0,0,0,0,0,0,0,0,0,0,0,0,0,0,0,0,0,0,549,0,2,0,0,0,0,0,0,2,1,2,1,1,1,0,0,0,0,1,1,1,0,0,1,0,0,0,0,0,0,0,0,0.0,563.0
2020-02-06,0,0,0,0,0,0,0,0,0,0,0,0,0,0,0,0,0,0,0,0,0,0,0,0,0,0,0,0,0,0,0,0,0,0,0,618,0,2,0,0,0,0,0,0,2,1,3,1,1,1,0,0,0,0,1,1,1,0,0,1,0,0,0,0,0,0,0,0,0.0,633.0
2020-02-07,0,0,0,0,0,0,0,0,0,0,0,0,0,0,0,0,0,0,0,0,0,0,0,0,0,0,0,0,0,0,0,0,0,0,0,699,1,3,0,0,0,0,0,0,2,1,3,1,1,1,0,0,0,0,2,1,1,0,0,1,0,1,0,0,0,0,0,0,0.0,718.0
2020-02-08,0,0,0,0,0,0,0,0,0,0,0,0,0,0,0,0,0,0,0,0,0,0,0,0,0,0,0,0,0,0,0,0,0,0,0,780,1,4,0,1,0,0,0,0,2,1,5,2,1,1,0,0,0,0,2,1,1,0,1,1,0,1,0,0,0,0,0,0,0.0,805.0
2020-02-09,0,0,0,0,0,0,0,0,0,0,0,0,0,0,0,0,0,0,0,0,0,0,0,0,0,0,0,0,0,0,0,0,0,0,0,871,1,6,0,1,1,0,1,0,2,1,6,2,1,2,0,1,0,0,3,1,1,0,2,1,0,1,0,0,0,0,0,0,0.0,905.0
2020-02-10,0,0,0,0,0,0,0,0,0,0,0,0,0,0,0,0,0,0,0,0,0,0,0,0,0,0,0,0,0,0,0,0,0,0,0,974,1,6,0,1,3,1,1,0,2,1,7,2,1,2,0,1,0,0,3,1,1,0,2,1,0,1,0,0,0,0,0,0,0.0,1012.0
2020-02-11,0,0,0,0,0,0,0,0,0,0,0,0,0,0,0,0,0,0,0,0,0,0,0,0,0,0,0,0,0,0,0,0,0,0,0,1068,1,7,0,1,4,1,1,0,3,1,8,3,1,2,0,1,0,0,3,1,2,0,2,1,0,1,0,0,0,0,0,0,0.0,1112.0
2020-02-12,0,0,0,0,0,0,0,0,0,0,0,0,0,0,0,0,0,0,0,0,0,0,0,0,0,0,0,0,0,0,0,0,0,0,0,1068,1,8,0,2,4,1,2,0,3,1,8,3,1,2,0,1,0,0,4,1,2,0,2,1,1,1,0,0,0,0,0,0,0.0,1117.0
2020-02-13,0,0,0,0,0,0,0,0,0,0,0,0,0,0,0,0,0,0,0,0,0,0,0,0,0,0,0,0,0,0,0,0,0,0,0,1310,2,10,0,2,5,1,2,0,4,1,9,3,1,3,0,2,0,0,4,1,3,0,2,1,1,1,1,0,0,0,0,0,0.0,1369.0
2020-02-14,0,0,0,0,0,0,0,0,0,0,0,0,0,0,0,0,0,0,0,0,0,0,0,0,0,0,0,0,0,0,0,0,0,0,0,1457,2,11,0,2,6,1,2,0,5,1,11,3,1,3,0,2,0,0,4,1,3,0,2,1,1,1,1,0,0,0,0,0,0.0,1521.0
2020-02-15,0,0,0,0,0,0,0,1,0,0,0,0,0,0,0,0,0,0,0,0,0,0,0,0,0,0,0,0,0,0,0,0,0,0,0,1596,2,13,0,2,6,1,2,0,5,1,11,4,1,3,0,2,0,0,4,1,3,0,2,1,1,1,1,0,0,0,0,0,1.0,1663.0
2020-02-16,0,0,0,0,0,0,0,1,0,0,0,0,0,0,0,0,0,0,0,0,0,0,0,0,0,0,0,0,0,0,0,0,0,0,0,1696,2,13,0,3,6,1,2,0,5,3,11,4,1,3,0,2,0,0,4,1,3,0,2,1,1,1,1,0,0,0,0,0,1.0,1766.0
2020-02-17,0,0,0,0,0,0,0,1,0,0,0,0,0,0,0,0,0,0,0,0,0,0,0,0,0,0,0,0,0,0,0,0,0,0,0,1789,4,16,0,3,6,1,2,0,5,3,11,4,1,3,0,2,0,0,4,1,3,0,2,1,1,1,1,0,0,0,0,0,1.0,1864.0
2020-02-18,0,0,0,0,0,0,0,1,0,0,0,0,0,0,0,0,0,0,0,0,0,0,0,0,0,0,0,0,0,0,0,0,0,0,0,1921,4,19,0,4,6,1,3,0,5,3,11,4,1,4,0,2,0,0,4,2,3,0,2,1,1,1,1,0,0,0,0,0,1.0,2003.0
2020-02-19,0,0,0,0,0,0,0,1,0,0,0,0,0,0,0,0,0,0,0,0,0,0,0,0,0,0,0,0,0,0,0,0,0,0,0,2029,5,19,0,4,6,1,3,0,5,3,12,4,2,4,0,2,0,1,4,2,3,0,2,2,1,1,1,0,0,0,0,0,1.0,2116.0
2020-02-20,0,0,0,0,0,0,0,1,0,0,0,0,0,0,0,0,0,0,0,0,0,0,0,0,0,0,0,0,0,0,0,0,0,0,0,2144,5,19,1,4,6,1,4,0,6,3,12,4,2,5,1,2,1,2,4,2,3,0,2,2,1,1,1,0,0,0,0,0,1.0,2238.0
2020-02-21,1,0,0,0,0,0,0,1,0,0,0,0,0,0,0,0,0,0,0,0,0,0,0,0,0,0,0,0,0,0,0,0,0,0,0,2144,5,19,1,4,6,1,4,0,6,3,12,4,2,5,1,2,1,2,4,2,3,0,2,2,1,1,1,0,0,0,0,0,2.0,2238.0
2020-02-22,2,0,0,0,0,0,0,1,0,0,0,0,0,0,0,0,0,0,0,0,0,0,0,0,0,0,0,0,0,0,0,0,0,0,0,2346,5,19,1,4,6,1,4,0,6,3,12,4,3,6,1,2,1,2,4,2,3,0,2,2,1,1,2,0,0,0,0,0,3.0,2443.0
2020-02-23,3,0,0,0,0,0,0,1,0,0,0,0,0,0,0,0,0,0,0,0,0,0,0,0,0,0,0,0,0,0,0,0,0,0,0,2346,6,19,1,4,6,1,4,0,6,3,12,4,3,6,1,2,1,2,5,2,3,0,2,2,1,1,2,0,0,0,0,0,4.0,2445.0
2020-02-24,7,0,0,0,0,0,0,1,0,0,0,0,0,0,0,0,0,0,0,0,0,0,0,0,0,0,0,0,0,0,0,0,0,0,0,2495,6,19,1,4,6,1,5,0,6,3,12,4,3,6,1,2,1,2,5,2,3,0,2,2,1,1,2,0,0,0,0,0,8.0,2595.0
2020-02-25,10,0,0,0,0,0,0,1,0,0,0,0,0,0,0,0,0,0,0,0,0,0,0,0,0,0,0,0,0,0,0,0,0,0,0,2563,7,19,1,4,6,1,6,0,6,3,12,4,3,6,1,2,1,2,5,2,3,0,2,2,1,1,2,0,0,0,0,0,11.0,2665.0
2020-02-26,12,0,0,0,0,0,0,2,0,0,0,0,0,0,0,0,0,0,0,0,0,0,0,0,0,0,0,0,0,0,0,0,0,0,0,2615,7,19,1,4,6,1,6,0,6,3,12,4,3,6,1,2,1,2,5,2,3,0,2,2,1,1,2,0,0,0,0,0,14.0,2717.0
2020-02-27,17,0,0,0,0,0,0,2,0,0,0,0,0,0,0,0,0,0,0,0,0,0,0,0,0,0,0,0,0,0,0,0,0,0,0,2641,7,20,1,4,6,1,6,0,6,3,13,5,3,6,1,2,1,2,5,2,3,0,2,2,1,1,2,0,0,0,0,0,19.0,2746.0
2020-02-28,21,0,0,0,0,0,0,2,0,0,0,0,0,0,0,0,0,0,0,0,0,0,0,0,0,0,0,0,0,0,0,0,0,0,0,2682,7,20,1,4,6,1,6,0,6,3,13,7,3,6,1,2,1,2,5,2,3,0,2,2,1,1,3,0,0,0,0,0,23.0,2790.0
2020-02-29,29,0,0,0,0,0,0,2,0,0,0,0,0,0,0,0,0,0,0,0,0,0,0,0,0,0,0,0,0,0,0,0,0,0,0,2727,7,21,1,4,6,1,6,0,6,3,13,8,3,6,1,2,1,2,5,2,3,0,2,2,1,1,3,0,0,0,0,0,31.0,2837.0
2020-03-01,34,0,0,0,0,0,0,2,0,0,0,0,0,0,0,0,0,0,0,0,0,0,0,0,0,0,0,0,0,0,0,0,0,0,0,2761,7,22,1,4,6,1,6,0,6,3,13,8,3,6,1,2,1,2,5,2,3,0,2,2,1,1,3,0,0,0,0,0,36.0,2872.0
2020-03-02,52,0,0,0,0,0,0,3,0,0,0,0,0,0,0,0,0,0,0,0,0,0,0,0,0,0,0,0,0,0,0,0,0,0,0,2803,7,22,1,4,6,1,6,0,6,3,13,8,3,6,1,2,1,2,5,2,3,0,2,2,1,1,3,0,0,0,0,0,55.0,2914.0
2020-03-03,79,0,0,0,0,0,0,4,0,0,0,0,0,0,0,0,0,0,0,1,0,0,0,0,0,0,0,0,0,0,0,0,0,0,0,2835,7,22,1,4,6,1,6,0,6,3,13,8,3,6,1,2,1,2,5,2,3,0,2,2,1,1,3,1,0,0,0,0,84.0,2947.0
2020-03-04,107,0,0,0,0,0,0,4,0,0,0,0,0,0,0,0,0,0,0,2,0,0,0,0,0,0,0,0,0,0,0,0,0,0,0,2871,7,22,1,4,6,1,6,0,6,3,13,8,3,6,1,2,1,2,5,2,3,0,2,2,1,1,3,1,0,0,0,0,113.0,2983.0
2020-03-05,148,0,0,0,0,0,0,6,0,0,0,0,0,0,0,0,0,0,0,3,1,0,0,0,0,0,0,0,0,0,0,0,0,0,0,2902,7,22,1,4,6,1,6,0,6,3,13,8,3,6,1,2,1,2,6,2,3,0,2,2,1,1,3,1,0,0,0,0,158.0,3015.0
2020-03-06,197,0,0,0,0,0,0,9,0,0,0,0,0,0,0,0,0,0,0,5,1,0,0,0,0,1,0,0,0,0,0,0,0,0,1,2931,7,22,1,4,6,1,6,0,6,3,13,8,3,6,1,2,1,2,6,2,3,0,2,2,1,1,3,1,0,0,0,0,214.0,3044.0
2020-03-07,233,0,0,0,0,0,0,11,0,0,0,0,0,0,0,0,0,0,0,10,1,0,0,0,0,1,0,0,0,0,0,0,0,0,2,2959,7,22,1,4,6,1,6,0,6,3,13,8,3,6,1,2,1,2,6,2,3,0,2,2,1,1,3,1,0,0,0,0,258.0,3072.0
2020-03-08,366,0,0,0,0,0,0,19,0,0,0,0,0,0,0,0,0,0,0,17,2,0,0,0,0,3,0,0,0,0,0,0,0,0,2,2986,7,22,1,4,6,1,6,0,6,3,13,8,3,6,1,2,1,2,6,2,3,0,2,3,1,1,3,1,0,0,0,0,409.0,3100.0
2020-03-09,463,0,0,0,2,0,0,19,0,0,0,0,0,0,0,0,0,0,0,28,2,0,0,0,0,3,0,0,0,0,0,0,0,0,3,3008,8,22,1,4,6,1,6,0,6,3,13,8,3,6,1,2,1,2,6,2,3,0,2,3,1,1,3,1,0,0,0,0,520.0,3123.0
2020-03-10,631,0,0,0,2,0,0,33,0,0,0,0,0,0,0,0,0,0,1,35,3,0,0,0,0,4,0,0,0,0,0,0,0,0,7,3024,8,22,1,4,6,1,6,0,6,3,13,8,3,6,1,2,1,2,6,2,3,0,2,3,1,1,3,1,0,0,0,0,716.0,3139.0
2020-03-11,827,3,0,1,3,1,0,48,0,0,0,0,0,0,0,0,0,0,1,54,4,0,1,0,0,5,0,0,0,0,0,0,0,0,7,3046,8,22,1,4,6,1,6,0,6,3,13,8,3,6,1,2,1,2,6,2,3,0,2,3,1,1,3,1,0,0,0,0,955.0,3161.0
2020-03-12,1016,3,0,1,3,1,0,48,0,0,0,0,0,0,0,0,0,0,2,55,4,1,1,0,0,5,0,0,0,0,0,1,0,0,9,3056,8,22,1,4,6,1,6,0,6,3,13,8,3,6,1,2,2,2,6,2,3,0,2,3,1,1,3,1,0,0,0,0,1150.0,3172.0
2020-03-13,1266,3,0,1,7,1,0,79,0,0,0,0,0,0,0,0,0,0,3,133,11,1,1,0,0,10,0,0,0,0,0,2,0,0,10,3062,8,22,1,4,6,1,7,0,6,3,13,8,3,6,1,2,2,2,6,2,3,0,2,4,1,1,3,1,0,0,0,0,1528.0,3180.0
2020-03-14,1441,4,1,2,9,2,0,91,1,0,0,0,0,0,0,1,0,0,5,195,13,1,3,3,0,12,0,0,0,0,0,3,0,0,29,3075,8,22,1,4,6,1,7,0,6,3,13,8,3,6,1,2,2,2,6,2,3,0,2,4,1,1,3,1,0,0,0,0,1816.0,3193.0
2020-03-15,1809,4,1,2,11,2,0,91,2,0,0,0,0,0,0,1,0,0,7,289,14,1,4,3,0,20,0,0,0,1,0,3,0,0,43,3085,8,22,1,4,6,1,7,0,6,3,13,8,3,6,1,2,2,2,6,2,3,0,2,4,1,1,3,1,0,0,0,0,2308.0,3203.0
2020-03-16,2158,5,1,2,17,2,0,148,3,0,0,0,0,0,0,1,0,0,8,342,14,3,4,3,0,24,0,0,0,1,0,4,0,0,65,3099,8,22,1,4,6,1,7,0,6,3,13,8,3,6,1,2,2,2,6,2,3,0,2,4,1,1,3,1,0,0,0,0,2805.0,3217.0
2020-03-17,2503,10,1,2,24,2,0,148,4,0,0,0,0,0,0,1,0,0,14,533,27,3,5,3,0,43,0,1,0,1,0,5,0,0,82,3111,8,22,1,4,6,1,7,0,6,3,13,8,3,6,1,2,3,2,6,2,3,0,2,4,1,1,3,1,0,0,0,0,3412.0,3230.0
2020-03-18,2978,14,2,2,28,2,0,148,4,0,0,0,0,0,0,1,1,0,21,623,28,4,5,6,0,58,0,2,0,1,0,5,0,0,116,3122,8,22,1,4,6,1,7,0,6,3,13,8,3,6,1,2,3,2,6,2,3,0,2,4,1,1,3,1,0,0,0,0,4049.0,3241.0
2020-03-19,3405,21,4,3,44,3,0,243,6,0,1,0,0,0,0,1,1,0,30,830,41,6,6,7,0,76,0,3,0,1,0,5,0,0,162,3130,8,22,1,4,6,1,7,0,6,3,13,8,3,6,1,2,3,2,6,2,3,0,2,4,1,1,3,1,0,0,0,0,4899.0,3249.0
2020-03-20,4032,37,4,3,67,3,0,450,9,0,1,0,0,0,0,1,1,0,38,1043,54,6,6,7,0,106,0,6,0,3,0,5,0,1,194,3133,8,22,1,4,6,1,7,0,6,3,13,8,3,6,1,2,3,2,6,2,3,0,2,4,2,1,3,1,0,0,0,0,6077.0,3253.0
2020-03-21,4825,67,8,3,84,3,0,562,13,0,1,0,0,1,0,1,1,1,49,1375,75,8,13,7,0,136,0,12,0,4,0,5,1,1,252,3139,8,22,1,4,6,1,7,0,6,3,13,8,3,6,1,2,3,2,6,2,3,0,2,4,2,1,3,1,0,0,0,0,7508.0,3259.0
2020-03-22,5476,75,8,4,94,3,1,674,13,0,1,1,0,1,0,2,0,1,60,1772,98,16,15,7,3,179,0,14,1,6,0,7,1,2,288,3153,8,22,1,4,6,1,7,0,6,3,13,8,4,6,1,2,3,2,6,2,3,0,2,4,2,1,3,1,0,0,0,0,8823.0,3274.0
2020-03-23,6077,88,8,6,123,3,1,860,24,0,1,1,0,1,0,3,0,1,81,2311,120,21,17,10,7,213,0,23,1,7,0,8,1,3,364,3153,8,22,1,4,6,1,7,0,6,3,13,8,4,6,1,2,3,2,6,2,3,0,2,4,2,1,3,1,0,0,0,0,10384.0,3274.0
2020-03-24,6820,122,8,7,157,3,3,1100,32,0,1,3,0,2,0,4,0,1,103,2808,122,28,20,12,11,276,0,33,1,9,0,10,3,3,512,3160,8,22,1,4,6,1,7,0,6,3,13,8,4,6,1,2,3,2,6,2,3,0,2,4,2,1,3,1,0,0,0,0,12214.0,3281.0
2020-03-25,7503,178,8,9,206,3,6,1331,34,1,1,3,0,4,0,5,0,3,134,3647,153,30,22,14,17,356,0,43,1,10,0,14,3,4,703,3163,8,22,1,4,6,1,7,0,6,3,13,8,5,6,1,2,3,2,6,2,3,0,2,4,2,1,3,1,0,0,0,0,14446.0,3285.0
2020-03-26,8215,220,9,19,267,3,9,1696,41,1,3,3,0,4,0,6,0,5,166,4365,191,49,26,14,23,434,0,60,3,10,0,16,3,1,884,3169,8,22,1,4,6,1,7,0,6,3,13,8,5,6,1,2,3,2,6,2,3,0,2,4,2,1,3,1,0,0,0,0,16746.0,3291.0
2020-03-27,9134,289,15,22,342,3,9,1995,52,1,3,5,0,5,0,9,0,7,201,5138,231,58,28,19,26,546,0,76,3,10,0,16,4,1,1172,3174,8,22,1,4,6,1,7,0,6,3,13,8,5,6,1,2,3,2,6,2,3,0,2,4,2,1,3,1,0,0,0,0,19420.0,3296.0
2020-03-28,10023,353,18,36,433,7,11,2314,65,1,5,5,0,7,0,9,0,9,239,5982,264,68,32,23,37,639,0,100,3,11,0,18,5,10,1464,3177,8,22,1,4,6,1,7,0,6,3,13,8,5,6,1,2,3,2,6,2,3,0,2,4,2,1,3,1,0,0,0,0,22191.0,3299.0
2020-03-29,10779,431,21,46,533,8,16,2606,72,3,6,5,0,7,0,11,0,11,284,6803,300,86,38,25,43,771,1,119,6,13,0,22,6,13,1676,3182,8,22,1,4,6,1,7,0,6,3,13,8,5,6,1,2,3,2,6,2,3,0,2,4,2,1,3,1,0,0,0,0,24761.0,3304.0
2020-03-30,11591,513,22,54,645,8,23,3024,77,3,6,7,0,7,0,11,0,13,332,7716,359,108,43,32,65,864,1,140,8,15,0,31,10,16,2050,3186,8,22,1,4,6,1,7,0,6,3,13,8,5,6,1,2,3,2,6,2,3,0,2,4,2,1,3,1,0,0,0,0,27794.0,3308.0
2020-03-31,12428,705,23,71,775,8,31,3523,90,4,6,8,0,8,0,15,0,17,385,8464,433,128,49,39,82,1039,1,160,12,16,0,33,13,16,2453,3187,8,22,1,4,6,1,7,0,6,3,13,8,5,6,1,2,3,2,6,2,3,0,2,4,2,1,3,1,0,0,0,0,31035.0,3309.0
2020-04-01,13155,828,29,85,920,10,39,4403,104,5,6,9,0,8,0,15,1,17,455,9387,488,146,50,44,92,1173,1,187,14,20,0,43,13,28,3125,3193,8,22,1,4,6,1,7,0,6,3,13,8,6,6,1,2,3,2,6,2,3,0,2,4,2,1,3,1,0,0,0,0,34900.0,3316.0
2020-04-02,13915,1011,30,98,1107,10,44,5387,123,11,7,10,0,9,0,17,1,19,535,10348,536,158,53,50,115,1339,1,209,15,21,0,57,16,31,3782,3199,8,22,1,4,6,1,7,0,6,3,13,8,6,6,1,2,3,2,6,2,3,0,2,4,2,1,3,1,0,0,0,0,39065.0,3322.0
2020-04-03,14681,1143,31,120,1275,14,53,6507,139,12,8,11,1,9,0,20,1,20,605,11198,591,168,63,59,133,1487,1,246,16,26,0,71,17,39,4518,3203,8,22,1,4,6,1,7,0,6,3,13,8,6,6,1,2,3,2,6,2,3,0,2,4,2,1,3,1,0,0,0,0,43283.0,3326.0
2020-04-04,15362,1283,31,137,1444,17,59,7560,161,13,12,11,1,11,0,22,1,25,690,11947,666,186,68,62,146,1651,1,266,17,32,1,79,21,44,5274,3207,8,22,1,4,6,1,7,0,6,3,13,8,6,6,1,2,3,2,6,2,3,0,2,4,2,1,3,1,0,0,0,0,47301.0,3330.0
2020-04-05,15887,1447,36,158,1584,20,67,8078,179,15,15,9,1,13,0,28,1,28,780,12641,715,204,73,71,151,1766,1,295,18,34,1,94,23,51,5873,3210,8,22,1,4,6,1,7,0,6,3,13,8,6,6,1,2,3,2,6,2,3,0,2,4,2,1,3,1,0,0,0,0,50357.0,3333.0
2020-04-06,16523,1632,41,174,1810,22,78,8911,187,19,16,9,1,15,0,30,2,27,864,13341,765,220,79,76,176,1867,1,311,21,38,1,107,29,58,6440,3212,8,22,1,4,6,1,7,0,6,3,13,8,6,6,1,2,3,2,6,2,3,0,2,4,2,1,3,1,0,0,0,0,53891.0,3335.0
2020-04-07,17127,2035,44,210,2016,23,88,10328,203,21,18,9,2,15,0,36,2,34,979,14045,821,243,81,89,197,2101,1,345,22,47,1,129,33,61,7545,3212,8,22,1,4,6,1,7,0,6,3,13,8,6,6,1,2,3,2,6,2,3,0,2,4,2,1,3,1,0,0,0,0,58951.0,3335.0
2020-04-08,17669,2240,46,235,2349,24,99,10869,218,24,19,9,2,15,1,40,2,40,1065,14792,895,273,83,101,220,2248,1,380,23,58,1,159,34,65,8575,3213,8,22,1,4,6,1,7,0,6,3,13,8,7,6,1,2,3,2,6,2,3,0,2,4,2,1,3,1,0,0,0,0,62874.0,3337.0
2020-04-09,18279,2523,52,263,2607,24,112,12210,237,24,20,10,3,16,2,43,2,42,1155,15447,948,295,87,108,248,2396,1,409,25,66,1,174,35,66,9691,3215,8,22,1,4,6,1,7,0,6,3,13,8,7,6,1,2,3,2,6,2,3,0,2,4,2,1,3,1,0,0,0,0,67621.0,3339.0
2020-04-10,18849,3019,54,287,2767,25,119,13197,247,24,21,10,3,22,2,45,2,48,1258,16081,1002,319,92,113,270,2511,1,435,26,77,1,181,36,71,10813,3216,8,22,1,4,6,1,7,0,6,3,13,8,7,6,1,2,3,2,6,2,3,0,2,4,2,1,3,1,0,0,0,0,72028.0,3340.0
2020-04-11,19468,3346,62,320,2736,28,129,13832,260,24,21,10,3,23,3,50,2,49,1355,16606,1036,337,93,119,291,2643,1,470,26,85,1,208,37,74,11656,3219,8,22,1,4,6,1,7,0,6,3,13,8,7,6,1,2,3,2,6,2,3,0,2,4,2,1,3,1,0,0,0,0,75404.0,3343.0
2020-04-12,19899,3600,66,334,3022,29,138,14393,273,25,23,11,5,23,3,53,2,56,1440,17209,1106,350,98,128,316,2737,1,504,29,99,1,232,39,80,12313,3219,8,22,1,4,6,1,7,0,6,3,13,8,7,6,1,2,3,2,6,2,3,0,2,4,2,1,3,1,0,0,0,0,78637.0,3343.0
2020-04-13,20465,3903,69,365,3194,32,143,14967,285,28,25,12,5,24,3,55,2,59,1531,17756,1138,368,99,134,331,2823,1,535,29,109,1,245,39,85,13037,3221,8,22,1,4,6,1,7,0,6,3,13,8,7,6,1,2,3,2,6,2,3,0,2,4,2,1,3,1,0,0,0,0,81897.0,3345.0
2020-04-14,21067,4157,67,406,3294,35,161,15712,299,31,31,12,5,29,3,56,2,64,1646,18056,1174,384,101,139,351,2945,1,567,31,122,1,263,40,94,14113,3221,8,22,1,4,6,1,7,0,6,3,13,8,7,6,1,2,3,2,6,2,3,0,2,4,2,1,3,1,0,0,0,0,85459.0,3345.0
2020-04-15,21645,4440,69,444,3804,36,166,17148,309,35,33,12,5,30,3,61,6,72,1757,18708,1239,393,102,150,372,3134,3,599,33,134,1,286,41,99,14993,3222,8,22,1,4,6,1,7,0,6,3,13,8,7,6,1,2,3,2,6,2,3,0,2,4,2,1,3,1,0,0,0,0,90362.0,3346.0
2020-04-16,22170,4857,69,486,4052,38,169,17901,321,36,35,12,5,32,3,61,8,75,1839,19315,1281,410,105,152,392,3315,3,629,33,142,1,314,43,103,16029,3222,8,22,1,4,6,1,7,0,6,3,13,8,7,6,1,2,3,2,6,2,3,0,2,4,2,1,3,1,0,0,0,0,94436.0,3346.0
2020-04-17,22745,5163,72,530,4352,41,173,18661,336,38,36,12,5,33,3,66,9,82,1925,20002,1327,431,108,161,411,3459,3,657,35,156,1,332,46,110,16942,4512,8,22,1,4,6,1,7,0,6,3,13,8,7,6,1,2,3,2,6,2,3,0,2,4,2,1,3,1,0,0,0,0,98463.0,4636.0
2020-04-18,23227,5453,72,571,4459,41,181,19303,346,38,39,12,5,33,3,70,11,90,2013,20043,1368,443,110,164,421,3601,3,687,35,172,1,347,47,117,18047,4512,8,22,1,4,6,1,7,0,6,3,13,8,7,6,1,2,3,2,6,2,3,0,2,4,2,1,3,1,0,0,0,0,101573.0,4636.0
2020-04-19,23660,5683,73,610,4586,42,186,19694,355,40,47,12,5,35,3,74,12,94,2097,20453,1393,452,113,165,451,3684,3,714,36,189,1,360,48,122,18479,4512,8,22,1,4,6,1,7,0,6,3,13,8,7,6,1,2,3,2,6,2,3,0,2,4,2,1,3,1,0,0,0,0,103971.0,4636.0
2020-04-20,24114,5828,75,687,4862,43,194,20240,364,40,47,12,5,37,3,77,13,98,2159,20852,1429,470,116,181,478,3751,3,735,37,199,1,380,49,125,19049,4512,8,22,1,4,6,1,7,0,6,3,13,8,7,6,1,2,3,2,6,2,3,0,2,4,2,1,3,1,0,0,0,0,106753.0,4636.0
2020-04-21,24648,5998,78,730,5033,45,201,20765,370,43,48,12,9,38,3,77,14,141,2236,21282,1478,491,121,182,498,3916,3,762,37,213,1,401,51,130,20273,4512,8,22,1,4,6,1,7,0,6,3,13,8,7,6,1,2,3,2,6,2,3,0,2,4,2,1,3,1,0,0,0,0,110328.0,4636.0
2020-04-22,25085,6262,80,769,5279,49,208,21309,384,44,48,13,11,38,3,79,14,149,2322,21717,1509,510,121,187,524,4054,3,785,37,225,1,426,53,134,21120,4512,8,22,1,4,6,1,7,0,6,3,13,8,7,6,1,2,3,2,6,2,3,0,2,4,2,1,3,1,0,0,0,0,113552.0,4636.0
2020-04-23,25549,6490,83,794,5575,52,210,21825,394,45,50,13,11,40,3,79,15,172,2411,22157,1549,522,125,194,545,4177,4,820,37,239,1,454,54,139,21802,4512,8,22,1,4,6,1,7,0,6,3,13,8,7,6,1,2,3,2,6,2,3,0,2,4,2,1,3,1,0,0,0,0,116630.0,4636.0
2020-04-24,25969,6679,85,1014,5760,54,214,22214,403,46,51,14,12,40,3,80,17,177,2484,22524,1589,530,130,199,567,4289,4,854,40,262,1,494,55,144,22812,4512,8,22,1,4,6,1,7,0,6,3,13,8,7,6,1,2,3,2,6,2,3,0,2,4,2,1,3,1,0,0,0,0,119810.0,4636.0
2020-04-25,26384,6917,85,1063,5877,55,218,22583,418,46,54,14,12,41,4,81,17,186,2559,22902,1599,536,130,201,601,4409,4,880,40,262,1,524,57,151,23627,4512,8,22,1,4,6,1,7,0,6,3,13,8,7,6,1,2,3,2,6,2,3,0,2,4,2,1,3,1,0,0,0,0,122538.0,4636.0
2020-04-26,26644,7094,88,1087,5976,56,220,22825,422,49,55,14,12,41,4,82,18,190,2632,23190,1610,542,134,201,619,4475,4,903,40,272,1,535,59,156,23991,4512,8,22,1,4,6,1,7,0,6,3,13,9,7,6,1,2,3,2,6,2,3,0,2,4,2,1,3,1,0,0,0,0,124241.0,4637.0
2020-04-27,26977,7207,88,1102,6126,58,223,23262,427,50,59,15,13,41,4,83,18,193,2714,23521,1665,549,136,205,641,4518,4,928,40,280,1,562,60,162,24311,4512,8,22,1,4,6,1,7,0,6,3,13,9,7,6,1,2,3,2,6,2,3,0,2,4,2,1,3,1,0,0,0,0,126243.0,4637.0
2020-04-28,27359,7331,89,1159,6314,58,227,23629,434,50,63,15,13,44,4,86,20,199,2798,23822,1699,569,138,206,663,4566,4,948,41,291,1,596,63,168,25280,4512,8,22,1,4,6,1,7,0,6,3,13,9,7,6,1,2,3,2,6,2,3,0,2,4,2,1,3,1,0,0,0,0,128947.0,4637.0
2020-04-29,27682,7501,89,1190,6467,64,227,24056,443,50,67,15,15,45,4,89,22,206,2876,24275,1716,580,139,207,693,4711,4,973,42,300,1,624,65,173,26049,4512,8,22,1,4,6,1,7,0,6,3,13,9,7,6,1,2,3,2,6,2,3,0,2,4,2,1,3,1,0,0,0,0,131660.0,4637.0
2020-04-30,27967,7594,90,1232,6623,66,236,24345,452,52,69,15,15,45,4,91,23,211,2954,24543,1737,584,140,210,717,4795,4,989,42,312,1,644,69,179,26683,4512,8,22,1,4,6,1,7,0,6,3,13,9,7,6,1,2,3,2,6,2,3,0,2,4,2,1,3,1,0,0,0,0,133733.0,4637.0
2020-05-01,28236,7703,92,1265,6736,68,240,24563,460,52,75,15,16,45,4,92,23,218,3027,24543,1754,589,140,210,744,4893,4,1007,43,323,1,651,70,179,27381,4512,8,22,1,4,6,1,7,0,6,3,13,9,7,6,1,2,3,2,6,2,3,0,2,4,2,1,3,1,0,0,0,0,135462.0,4637.0
2020-05-02,28710,7765,92,1286,6812,72,245,24729,475,53,77,15,16,46,4,94,24,220,3102,25100,1762,596,143,211,771,4987,4,1023,44,335,1,664,72,189,27965,4512,8,22,1,4,6,1,7,0,6,3,13,9,7,6,1,2,3,2,6,2,3,0,2,4,2,1,3,1,0,0,0,0,137704.0,4637.0
2020-05-03,28884,7844,96,1303,6866,73,248,24864,484,55,79,15,16,46,4,96,24,230,3186,25264,1762,598,144,211,790,5056,4,1043,45,340,1,678,77,193,28218,4512,8,22,1,4,6,1,7,0,6,3,13,9,7,6,1,2,3,2,6,2,3,0,2,4,2,1,3,1,0,0,0,0,138837.0,4637.0
2020-05-04,29079,7924,96,1319,6993,78,252,25168,493,55,80,15,16,46,4,97,25,240,3258,25428,1784,600,146,214,818,5082,4,1063,45,351,1,698,78,197,28490,4512,8,22,1,4,6,1,7,0,6,3,13,9,7,6,1,2,3,2,6,2,3,0,2,4,2,1,3,1,0,0,0,0,140237.0,4637.0
2020-05-05,29315,8016,96,1339,6993,80,257,25498,503,55,83,15,17,46,5,98,25,246,3331,25613,1795,606,146,215,841,5168,4,1074,46,363,1,716,79,200,29216,4512,8,22,1,4,6,1,7,0,6,3,13,9,7,6,1,2,3,2,6,2,3,0,2,4,2,1,3,1,0,0,0,0,142101.0,4637.0
2020-05-06,29684,8339,98,1375,7275,84,262,25772,506,55,85,15,17,48,5,99,25,252,3411,25857,1805,608,147,216,864,5204,4,1089,46,373,1,733,86,203,29863,4512,8,22,1,4,6,1,7,0,6,3,13,9,7,6,1,2,3,2,6,2,3,0,2,4,2,1,3,1,0,0,0,0,144506.0,4637.0
2020-05-07,29958,8415,100,1403,7392,84,270,25949,514,56,86,15,18,49,5,99,26,255,3471,26070,1810,609,148,217,888,5288,4,1105,47,383,1,755,90,206,30321,4512,8,22,1,4,6,1,7,0,6,3,13,9,7,6,1,2,3,2,6,2,3,0,2,4,2,1,3,1,0,0,0,0,146107.0,4637.0
2020-05-08,30201,8521,100,1429,7510,86,273,26192,522,56,86,15,18,49,5,100,26,260,3540,26299,1823,614,150,218,923,5359,4,1114,47,392,1,776,98,209,30900,4512,8,22,1,4,6,1,7,0,6,3,13,9,7,6,1,2,3,2,6,2,3,0,2,4,2,1,3,1,0,0,0,0,147916.0,4637.0
2020-05-09,30395,8581,101,1446,7549,90,276,26271,526,60,87,15,18,49,5,101,26,265,3614,26478,1830,615,151,219,939,5422,4,1126,48,405,1,785,102,215,31175,4512,8,22,1,4,6,1,7,0,6,3,13,9,7,6,1,2,3,2,6,2,3,0,2,4,2,1,3,1,0,0,0,0,148990.0,4637.0
2020-05-10,30560,8656,101,1458,7569,91,280,26341,529,60,90,16,18,50,5,102,26,267,3678,26621,1833,618,151,219,961,5440,4,1135,48,413,1,800,107,215,31392,4512,8,22,1,4,6,1,7,0,6,3,13,9,7,6,1,2,3,2,6,2,3,0,2,4,2,1,3,1,0,0,0,0,149855.0,4637.0
2020-05-11,30739,8707,101,1467,7661,93,282,26604,533,61,91,16,18,50,5,102,26,271,3739,26744,1845,620,151,224,982,5456,4,1144,48,421,1,811,113,218,31579,4512,8,22,1,4,6,1,7,0,6,3,13,9,7,6,1,2,3,2,6,2,3,0,2,4,2,1,3,1,0,0,0,0,150927.0,4637.0
2020-05-12,30911,8761,102,1488,7738,95,283,26951,527,61,91,16,18,50,5,102,27,275,3789,26920,1867,623,152,228,1002,5510,4,1163,48,425,1,839,117,220,32193,4512,8,22,1,4,6,1,7,0,6,3,13,9,7,6,1,2,3,2,6,2,3,0,2,4,2,1,3,1,0,0,0,0,152602.0,4637.0
2020-05-13,31106,8843,103,1497,7861,96,290,27032,533,61,94,17,19,54,6,103,27,284,3835,27104,1870,624,155,229,1036,5562,4,1175,49,430,1,861,120,222,32640,4512,8,22,1,4,6,1,7,0,6,3,13,9,7,6,1,2,3,2,6,2,3,0,2,4,2,1,3,1,0,0,0,0,153943.0,4637.0
2020-05-14,31368,8903,103,1506,7884,99,293,27381,537,62,94,17,19,54,6,103,27,287,3893,27321,1872,626,156,232,1053,5590,4,1184,49,436,1,883,122,224,32992,4512,8,22,1,4,6,1,7,0,6,3,13,9,7,6,1,2,3,2,6,2,3,0,2,4,2,1,3,1,0,0,0,0,155381.0,4637.0
2020-05-15,31610,8959,104,1518,7897,102,295,27485,537,63,95,17,19,54,6,103,27,293,3942,27459,1878,628,160,232,1070,5643,4,1190,49,442,1,907,128,225,33342,4512,8,22,1,4,6,1,7,0,6,3,13,9,7,6,1,2,3,2,6,2,3,0,2,4,2,1,3,1,0,0,0,0,156484.0,4637.0
2020-05-16,31763,9005,104,1533,7938,105,296,27483,543,63,95,17,19,55,6,103,28,297,3995,27563,1879,629,162,232,1094,5670,4,1203,51,448,1,915,129,228,33753,4512,8,22,1,4,6,1,7,0,6,3,13,9,7,6,1,2,3,2,6,2,3,0,2,4,2,2,3,1,0,0,0,0,157409.0,4638.0
2020-05-17,31908,9052,107,1543,7962,108,298,28062,547,63,95,17,19,56,6,104,28,298,4056,27563,1881,629,163,232,1107,5680,4,1218,51,451,1,925,133,230,33820,4512,8,22,1,4,6,1,7,0,6,3,13,9,7,6,1,2,3,2,6,2,3,0,2,4,2,2,3,1,0,0,0,0,158417.0,4638.0
2020-05-18,32007,9080,107,1547,8003,110,297,28193,548,64,95,17,19,59,6,104,28,300,4096,27709,1886,629,165,233,1120,5694,4,1231,51,462,1,936,133,231,33966,4512,8,22,1,4,6,1,7,0,6,3,13,9,7,6,1,2,3,2,6,2,3,0,2,4,2,2,3,1,0,0,0,0,159131.0,4638.0
2020-05-19,32169,9108,109,1561,8081,112,302,27976,551,64,96,17,21,60,6,104,28,301,4150,27778,1891,632,165,233,1137,5715,4,1247,51,467,1,948,134,234,34466,4512,8,22,1,4,6,1,7,0,6,3,13,9,7,6,1,2,3,2,6,2,3,0,2,4,2,2,3,1,0,0,0,0,159919.0,4638.0
2020-05-20,32330,9150,109,1571,8144,116,304,28084,554,64,96,17,21,60,6,105,28,304,4204,27888,1892,633,166,234,1147,5748,4,1263,51,470,1,962,136,235,34794,4512,8,22,1,4,6,1,7,0,6,3,13,9,7,6,1,2,3,2,6,2,3,0,2,4,2,2,3,1,0,0,0,0,160891.0,4638.0
2020-05-21,32486,9186,109,1583,8203,120,306,28167,561,64,97,17,22,61,6,106,28,306,4260,27940,1898,633,168,235,1156,5775,4,1277,51,473,1,972,140,237,35067,4512,8,22,1,4,6,1,7,0,6,3,13,9,7,6,1,2,3,2,6,2,3,0,2,4,2,2,3,1,0,0,0,0,161715.0,4638.0
2020-05-22,32616,9212,109,1592,8228,125,312,28241,561,64,99,17,22,61,6,106,28,306,4316,28628,1903,635,169,235,1166,5788,4,1289,51,476,1,982,141,237,35358,4512,8,22,1,4,6,1,7,0,6,3,13,9,7,6,1,2,3,2,6,2,3,0,2,4,2,2,3,1,0,0,0,0,163084.0,4638.0
2020-05-23,32735,9237,109,1604,8261,126,314,28284,561,64,99,17,22,63,6,106,28,306,4360,28678,1905,639,171,235,1176,5811,4,1302,51,482,1,993,141,238,35578,4512,8,22,1,4,6,1,7,0,6,3,13,9,7,6,1,2,3,2,6,2,3,0,2,4,2,2,3,1,0,0,0,0,163707.0,4638.0
2020-05-24,32785,9280,110,1608,8283,130,315,28317,562,64,99,17,22,63,6,107,28,307,4402,28752,1906,640,171,235,1185,5822,4,1316,51,486,1,996,144,238,35957,4512,8,22,1,4,6,1,7,0,6,3,13,9,7,6,1,2,3,2,6,2,3,0,2,4,2,2,3,1,0,0,0,0,164409.0,4638.0
2020-05-25,32877,9312,110,1606,8309,130,317,28407,563,65,100,17,22,63,6,107,28,308,4430,26834,1913,641,172,235,1205,5830,4,1330,51,491,1,1007,146,239,36061,4512,8,22,1,4,6,1,7,0,6,3,13,9,7,6,1,2,3,2,6,2,3,0,2,4,2,2,3,1,0,0,0,0,162937.0,4638.0
2020-05-26,32955,9334,110,1615,8372,130,317,28480,563,65,101,17,22,65,6,108,28,312,4469,27117,1915,643,173,235,1216,5856,4,1342,51,499,1,1024,149,239,36192,4512,8,22,1,4,6,1,7,0,6,3,13,9,7,6,1,2,3,2,6,2,3,0,2,4,2,2,3,1,0,0,0,0,163725.0,4638.0
2020-05-27,33072,9364,110,1631,8428,133,317,28546,565,66,101,17,23,66,7,108,28,313,4509,27117,1917,645,173,235,1227,5871,4,1356,51,505,1,1028,151,240,36614,4512,8,22,1,4,6,1,7,0,6,3,13,9,7,6,1,2,3,2,6,2,3,0,2,4,2,2,3,1,0,0,0,0,164539.0,4638.0
2020-05-28,33142,9388,110,1639,8470,134,319,28611,568,66,102,17,24,68,7,108,28,313,4549,27119,1919,668,175,236,1235,5903,4,1369,51,509,1,1038,153,241,36957,4512,8,22,1,4,6,1,7,0,6,3,13,9,7,6,1,2,3,2,6,2,3,0,2,4,2,2,3,1,0,0,0,0,165241.0,4638.0
2020-05-29,33229,9430,110,1645,8504,136,319,28663,568,67,103,17,24,68,9,108,28,314,4588,27121,1919,668,175,236,1248,5931,4,1383,51,517,1,1051,153,242,37231,4512,8,22,1,4,6,1,7,0,6,3,13,9,7,6,1,2,3,2,6,2,3,0,2,4,2,2,3,1,0,0,0,0,165861.0,4638.0
2020-05-30,33340,9453,110,1651,8530,139,319,28720,571,67,103,17,24,70,9,108,28,316,4633,27125,1919,668,175,236,1259,5951,4,1396,51,524,1,1061,153,242,37385,4512,8,22,1,4,6,1,7,0,6,3,13,9,7,6,1,2,3,2,6,2,3,0,2,4,2,2,3,1,0,0,0,0,166358.0,4638.0
2020-05-31,33415,9467,110,1652,8540,140,320,28751,574,68,103,17,24,70,9,108,28,320,4673,27127,1920,668,175,236,1266,5956,4,1410,51,526,1,1064,153,243,37445,4512,8,22,1,4,6,1,7,0,6,3,13,9,7,6,1,2,3,2,6,2,3,0,2,4,2,2,3,1,0,0,0,0,166634.0,4638.0
2020-06-01,33475,9486,110,1650,8555,140,321,28779,576,68,103,17,24,70,9,109,28,318,4710,27127,1920,668,179,236,1276,5962,4,1424,51,527,1,1074,154,244,37531,4512,8,22,1,4,6,1,7,0,6,3,13,9,7,6,1,2,3,2,6,2,3,0,2,4,2,2,3,1,0,0,0,0,166926.0,4638.0
2020-06-02,33530,9505,110,1658,8563,144,323,28886,580,68,103,17,24,71,9,109,28,320,4736,27127,1920,669,179,237,1288,5967,4,1436,51,532,1,1092,157,245,37780,4512,8,22,1,4,6,1,7,0,6,3,13,9,7,6,1,2,3,2,6,2,3,0,2,4,2,2,3,1,0,0,0,0,167469.0,4638.0
2020-06-03,33601,9522,110,1659,8602,146,325,28967,580,69,103,17,24,71,9,109,28,321,4781,27128,1921,670,179,237,1296,5977,4,1447,51,534,1,1115,157,245,38034,4512,8,22,1,4,6,1,7,0,6,3,13,9,7,6,1,2,3,2,6,2,3,0,2,4,2,2,3,1,0,0,0,0,168040.0,4638.0
2020-06-04,33689,9548,110,1664,8635,147,326,29010,582,69,103,17,25,71,9,109,28,322,4819,27133,1921,670,180,238,1305,5990,4,1455,51,539,1,1117,159,246,38164,4512,8,22,1,4,6,1,7,0,6,3,13,9,7,6,1,2,3,2,6,2,3,0,2,4,2,2,3,1,0,0,0,0,168456.0,4638.0
2020-06-05,33774,9566,110,1670,8658,159,327,29056,586,69,103,17,25,71,9,109,28,322,4850,27134,1921,672,180,238,1316,6005,4,1465,51,542,1,1137,159,247,38422,4512,8,22,1,4,6,1,7,0,6,3,13,9,7,6,1,2,3,2,6,2,3,0,2,4,2,2,3,1,0,0,0,0,169003.0,4638.0
2020-06-06,33846,9580,110,1678,8673,160,327,29087,587,69,104,18,25,71,9,109,28,322,4883,27135,1921,672,180,238,1322,6011,4,1474,51,545,1,1153,159,248,38565,4512,8,22,1,4,6,1,7,0,6,3,13,9,7,6,1,2,3,2,6,2,3,0,2,4,2,2,3,1,0,0,0,0,169365.0,4638.0
2020-06-07,33899,9595,110,1679,8685,160,327,29100,589,69,104,18,25,71,9,109,28,323,4921,27136,1921,672,180,238,1333,6013,4,1479,51,546,1,1157,159,249,38619,4512,8,22,1,4,6,1,7,0,6,3,13,9,7,6,1,2,3,2,6,2,3,0,2,4,2,2,3,1,0,0,0,0,169579.0,4638.0
2020-06-08,33964,9606,110,1683,8695,164,328,29153,593,69,104,18,26,71,9,109,28,323,4954,27136,1923,672,182,239,1339,6016,4,1485,51,548,1,1166,160,250,38666,4512,8,22,1,4,6,1,7,0,6,3,13,9,7,6,1,2,3,2,6,2,3,0,2,4,2,2,3,1,0,0,0,0,169845.0,4638.0
2020-06-09,34043,9619,110,1691,8736,167,328,29237,593,69,106,18,26,72,9,109,28,324,4994,27136,1934,672,183,239,1354,6031,4,1492,51,550,1,1183,160,250,38861,4512,8,22,1,4,6,1,7,0,6,3,13,9,7,6,1,2,3,2,6,2,3,0,2,4,2,2,3,1,0,0,0,0,170380.0,4638.0
2020-06-10,34114,9629,110,1695,8752,167,330,29260,593,69,106,18,26,74,9,109,28,324,5030,27136,1936,673,183,239,1360,6042,4,1497,51,551,1,1206,161,251,39025,4512,8,22,1,4,6,1,7,0,6,3,13,9,7,6,1,2,3,2,6,2,3,0,2,4,2,2,3,1,0,0,0,0,170759.0,4638.0
2020-06-11,34167,9636,110,1703,8772,168,328,29287,593,69,106,18,26,74,9,109,28,325,5060,27136,1937,674,183,242,1369,6044,4,1504,51,553,1,1215,161,252,39101,4512,8,22,1,4,6,1,7,0,6,3,13,9,7,6,1,2,3,2,6,2,3,0,2,4,2,2,3,1,0,0,0,0,171015.0,4638.0
2020-06-12,34223,9646,110,1705,8783,172,329,29315,594,69,107,18,27,74,9,109,28,325,5093,27136,1938,675,183,242,1380,6053,4,1505,51,555,1,1222,163,252,39232,4512,8,22,1,4,6,1,7,0,6,3,13,9,7,6,1,2,3,2,6,2,3,0,2,4,2,2,3,1,0,0,0,0,171328.0,4638.0
2020-06-13,34301,9650,110,1705,8793,172,328,29339,597,69,107,18,28,75,9,109,28,325,5120,27136,1938,677,183,242,1394,6057,4,1512,51,559,1,1237,163,253,39339,4512,8,22,1,4,6,1,7,0,6,3,13,9,7,6,1,2,3,2,6,2,3,0,2,4,2,2,3,1,0,0,0,0,171629.0,4638.0
2020-06-14,34345,9655,110,1706,8801,174,329,29346,597,69,107,18,28,75,9,109,28,326,5151,27136,1938,677,183,242,1410,6059,4,1517,51,562,1,1247,163,254,39366,4512,8,22,1,4,6,1,7,0,6,3,13,9,7,6,1,2,3,2,6,2,3,0,2,4,2,2,3,1,0,0,0,0,171793.0,4638.0
2020-06-15,34371,9661,110,1706,8807,176,330,29375,598,69,107,18,28,76,9,109,28,326,5179,27136,1939,678,184,242,1427,6065,4,1520,51,563,1,1256,165,255,39395,4512,8,22,1,4,6,1,7,0,6,3,13,9,7,6,1,2,3,2,6,2,3,0,2,4,2,2,3,1,0,0,0,0,171964.0,4638.0
2020-06-16,34405,9663,110,1709,8820,181,331,29484,598,69,107,18,28,76,9,109,28,326,5212,27136,1954,681,185,242,1437,6070,4,1522,52,565,1,1272,168,256,39515,4512,8,22,1,4,6,1,7,0,6,3,13,9,7,6,1,2,3,2,6,2,3,0,2,4,2,2,3,1,0,0,0,0,172343.0,4638.0
2020-06-17,34448,9675,110,1710,8851,184,333,29512,598,69,107,18,30,76,9,109,28,326,5241,27136,1956,687,187,243,1451,6074,4,1523,52,567,1,1286,168,257,39625,4512,8,22,1,4,6,1,7,0,6,3,13,9,7,6,1,2,3,2,6,2,3,0,2,4,2,2,3,1,0,0,0,0,172651.0,4638.0
2020-06-18,34514,9683,110,1714,8875,190,334,29540,600,69,107,19,30,76,9,109,28,326,5270,27136,1956,688,188,244,1473,6078,4,1524,52,568,1,1316,168,258,39692,4512,8,22,1,4,6,1,7,0,6,3,13,9,7,6,1,2,3,2,6,2,3,0,2,4,2,2,3,1,0,0,0,0,172949.0,4638.0
2020-06-19,34561,9695,110,1714,8887,193,335,29554,600,69,107,19,30,76,9,109,28,326,5299,28315,1956,688,189,244,1484,6081,4,1527,52,568,1,1334,169,259,39776,4512,8,22,1,4,6,1,7,0,6,3,13,9,7,6,1,2,3,2,6,2,3,0,2,4,2,2,3,1,0,0,0,0,174368.0,4638.0
2020-06-20,34610,9696,110,1715,8895,199,336,29568,600,69,107,19,30,76,9,109,28,326,5320,28322,1956,688,190,244,1500,6089,4,1528,52,570,1,1346,169,260,39847,4512,8,22,1,4,6,1,7,0,6,3,13,9,7,6,1,2,3,2,6,2,3,0,2,5,2,2,3,1,0,0,0,0,174588.0,4639.0
2020-06-21,34634,9696,110,1715,8895,199,336,29574,600,69,107,19,30,76,9,109,28,326,5341,28323,1956,690,190,244,1512,6090,4,1530,52,570,1,1356,169,261,39878,4512,8,22,1,4,6,1,7,0,6,3,13,9,7,6,1,2,3,2,6,2,3,0,2,5,2,2,3,1,0,0,0,0,174699.0,4639.0
2020-06-22,34657,9696,110,1717,8899,207,336,29595,602,69,107,19,30,76,9,109,28,327,5366,28324,1956,690,190,248,1523,6090,4,1534,52,572,1,1359,171,262,39892,4512,8,22,1,4,6,1,7,0,6,3,13,9,7,6,1,2,3,2,6,2,3,0,2,5,2,2,3,1,0,0,0,0,174827.0,4639.0
2020-06-23,34675,9713,110,1720,8914,208,339,29652,603,69,107,19,30,77,9,109,28,327,5388,28325,1956,693,190,248,1539,6095,4,1540,52,573,1,1375,172,263,39986,4512,8,22,1,4,6,1,7,0,6,3,13,9,7,6,1,2,3,2,6,2,3,0,2,6,2,2,3,1,0,0,0,0,175109.0,4640.0
2020-06-24,34644,9722,110,1726,8928,209,343,29661,603,69,107,19,30,78,9,109,28,327,5412,28327,1958,693,190,249,1555,6097,4,1543,52,576,1,1396,173,263,40073,4512,8,22,1,4,6,1,7,0,6,3,13,9,7,6,1,2,3,2,6,2,3,0,2,6,2,2,3,1,0,0,0,0,175284.0,4640.0
2020-06-25,34678,9726,110,1727,8940,211,345,29680,603,69,107,19,30,78,9,109,28,327,5424,28330,1958,698,191,249,1565,6100,4,1549,52,577,1,1412,175,264,40172,4512,8,22,1,4,6,1,7,0,6,3,13,9,7,6,1,2,3,2,6,2,3,0,2,7,2,2,3,1,0,0,0,0,175517.0,4641.0
2020-06-26,34708,9731,110,1730,8965,215,349,29705,604,69,107,19,30,78,9,109,28,328,5438,28338,1962,698,191,249,1579,6103,4,1555,52,578,1,1429,178,265,40249,4512,8,22,1,4,6,1,7,0,6,3,13,9,7,6,1,2,3,2,6,2,3,0,2,7,2,2,3,1,0,0,0,0,175763.0,4641.0
2020-06-27,34716,9732,110,1734,8968,216,349,29704,604,69,107,19,30,78,9,109,28,328,5460,28341,1962,700,191,249,1589,6105,4,1561,52,578,1,1435,178,267,40289,4512,8,22,1,4,6,1,7,0,6,3,13,9,7,6,1,2,3,2,6,2,3,0,2,7,2,2,3,1,0,0,0,0,175872.0,4641.0
2020-06-28,34738,9732,110,1735,8968,219,348,29704,604,69,107,19,30,78,9,111,28,328,5478,28343,1962,702,191,249,1612,6105,4,1564,52,581,1,1438,178,270,40320,4512,8,22,1,4,6,1,7,0,6,3,13,9,7,6,1,2,3,2,6,2,3,0,2,7,2,2,3,1,0,0,0,0,175987.0,4641.0
2020-06-29,34744,9732,110,1735,8976,223,348,29736,605,69,107,19,30,78,9,111,28,328,5498,28346,1962,703,191,249,1634,6107,4,1568,52,585,1,1444,184,274,40341,4512,8,22,1,4,6,1,7,0,6,3,13,9,7,6,1,2,3,2,6,2,3,0,2,7,2,2,3,1,0,0,0,0,176131.0,4641.0
2020-06-30,34767,9747,110,1736,8990,230,349,29763,605,69,107,19,30,78,9,111,28,328,5515,28355,1963,705,192,250,1651,6113,4,1576,52,585,1,1463,186,277,40394,4512,8,22,1,4,6,1,7,0,6,3,13,9,7,6,1,2,3,2,6,2,3,0,2,7,2,2,3,1,0,0,0,0,176358.0,4641.0
2020-07-01,34788,9754,110,1738,8995,232,349,29780,606,69,108,19,30,78,9,111,28,328,5530,28364,1965,705,192,251,1667,6115,4,1579,52,586,1,1477,188,281,40491,4512,8,22,1,4,6,1,7,0,6,3,13,9,7,6,1,2,3,2,6,2,3,0,2,7,2,2,3,1,0,0,0,0,176580.0,4641.0
2020-07-02,34818,9761,110,1738,9006,232,353,29794,606,69,110,19,30,78,9,111,28,328,5538,28368,1965,705,192,251,1687,6118,4,1587,52,587,1,1492,189,287,40532,4512,8,22,1,4,6,1,7,0,6,3,13,9,7,6,1,2,3,2,6,2,3,0,2,7,2,2,3,1,0,0,0,0,176755.0,4641.0
2020-07-03,34833,9765,110,1740,9010,239,353,29812,606,69,112,19,30,79,9,111,28,329,5553,28385,1965,705,192,251,1708,6120,4,1598,52,588,1,1507,191,298,40581,4512,8,22,1,4,6,1,7,0,6,3,13,9,7,6,1,2,3,2,6,2,3,0,2,7,2,2,3,1,0,0,0,0,176953.0,4641.0
2020-07-04,34854,9771,110,1741,9020,241,351,29812,606,69,113,19,30,79,9,111,28,329,5562,28385,1965,705,192,251,1731,6126,4,1605,52,589,1,1512,191,306,40613,4512,8,22,1,4,6,1,7,0,6,3,13,9,7,6,1,2,3,2,6,2,3,0,2,7,2,2,3,1,0,0,0,0,177083.0,4641.0
2020-07-05,34861,9771,110,1741,9023,246,348,29813,606,69,113,19,30,79,9,111,28,329,5578,28385,1965,706,192,251,1750,6127,4,1614,52,589,1,1517,191,311,40632,4512,8,22,1,4,6,1,7,0,6,3,13,9,7,6,1,2,3,2,6,2,3,0,2,7,2,2,3,1,0,0,0,0,177171.0,4641.0
2020-07-06,34869,9774,110,1741,9022,250,350,29836,607,69,113,19,30,79,9,111,28,329,5590,28388,1965,706,192,251,1768,6128,4,1620,52,589,1,1521,199,317,40643,4512,8,22,1,4,6,1,7,0,6,3,13,9,7,6,1,2,3,2,6,2,3,0,2,7,2,2,3,1,0,0,0,0,177280.0,4641.0
2020-07-07,34899,9774,110,1742,9032,254,351,29847,609,69,113,19,30,79,9,111,28,329,5601,28392,1966,706,193,251,1799,6132,4,1629,52,589,1,1528,207,330,40697,4512,8,22,1,4,6,1,7,0,6,3,13,9,7,6,1,2,3,2,6,2,3,0,2,7,2,2,3,1,0,0,0,0,177482.0,4641.0
2020-07-08,34914,9776,110,1738,9046,259,351,29846,609,69,114,19,30,79,9,111,28,329,5616,28396,1966,706,193,251,1817,6135,4,1631,52,589,1,1542,209,341,40754,4512,8,22,1,4,6,1,7,0,6,3,13,9,7,6,1,2,3,2,6,2,3,0,2,7,2,2,3,1,0,0,0,0,177640.0,4641.0
2020-07-09,34926,9778,110,1743,9057,262,352,29889,609,69,115,19,30,79,9,111,28,329,5630,28401,1966,706,193,252,1834,6137,4,1644,52,591,1,1551,214,352,40785,4512,8,22,1,4,6,1,7,0,6,3,13,9,7,6,1,2,3,2,6,2,3,0,2,7,2,2,3,1,0,0,0,0,177828.0,4641.0
2020-07-10,34938,9781,110,1744,9063,267,352,29912,609,69,117,19,30,79,9,111,28,329,5641,28403,1966,706,193,252,1847,6136,4,1646,52,593,1,1562,216,370,40819,4512,8,22,1,4,6,1,7,0,6,3,13,9,7,6,1,2,3,2,6,2,3,0,2,7,2,2,3,1,0,0,0,0,177974.0,4641.0
2020-07-11,34945,9782,110,1746,9070,267,352,29909,609,69,118,19,30,79,9,111,28,329,5650,28403,1968,706,193,252,1871,6137,4,1654,52,595,1,1568,219,382,40836,4512,8,22,1,4,6,1,7,0,6,3,13,9,7,6,1,2,3,2,6,2,3,0,2,7,2,2,3,1,0,0,0,0,178073.0,4641.0
2020-07-12,34954,9782,111,1746,9071,268,352,29909,609,69,119,19,30,79,9,111,28,329,5664,28403,1968,708,193,252,1884,6137,4,1660,52,595,1,1571,221,393,40845,4512,8,22,1,4,6,1,7,0,6,3,13,9,7,6,1,2,3,2,6,2,3,0,2,7,2,2,3,1,0,0,0,0,178146.0,4641.0
2020-07-13,34967,9782,111,1746,9074,276,353,29931,610,69,119,19,31,79,9,111,28,329,5672,28406,1968,708,193,253,1901,6137,4,1662,52,595,1,1576,226,405,40855,4512,8,22,1,4,6,1,7,0,6,3,13,9,7,6,1,2,3,2,6,2,3,0,2,7,2,2,3,1,0,0,0,0,178258.0,4641.0
2020-07-14,34984,9787,111,1746,9078,283,355,29929,610,69,120,19,31,79,9,111,28,329,5678,28409,1968,709,193,253,1931,6135,4,1668,52,595,1,1588,226,418,40899,4512,8,22,1,4,6,1,7,0,6,3,13,9,7,6,1,2,3,2,6,2,3,0,2,8,2,2,3,1,0,0,0,0,178405.0,4642.0
2020-07-15,34997,9788,111,1748,9080,289,355,30018,610,69,120,19,31,79,9,111,28,328,5686,28413,1968,710,193,253,1952,6136,4,1676,52,595,1,1594,235,429,40925,4512,8,22,1,4,6,1,7,0,6,3,13,9,7,6,1,2,3,2,6,2,3,0,2,10,2,2,3,1,0,0,0,0,178612.0,4644.0
2020-07-16,35017,9795,111,1749,9087,293,355,30035,610,69,120,19,31,79,9,111,28,328,5694,28416,1969,711,193,254,1971,6137,4,1679,52,595,1,1605,240,442,40949,4512,8,22,1,4,6,1,7,0,6,3,13,9,7,6,1,2,3,2,6,2,3,0,2,10,2,2,3,1,0,0,0,0,178758.0,4644.0
2020-07-17,35028,9800,111,1752,9088,297,358,30049,611,69,120,19,31,79,9,111,28,328,5705,28420,1969,711,194,255,1988,6138,4,1682,52,595,1,1612,245,452,40975,4512,8,22,1,4,6,1,7,0,6,3,13,9,7,6,1,2,3,2,6,2,3,0,2,11,2,2,3,1,0,0,0,0,178886.0,4645.0
2020-07-18,35042,9800,111,1753,9091,299,358,30046,611,69,120,19,31,80,9,111,28,328,5715,28420,1969,711,194,255,2009,6136,4,1684,52,596,1,1618,246,461,40984,4512,8,22,1,4,6,1,7,0,6,3,13,9,7,6,1,2,3,2,6,2,3,0,2,12,2,2,3,1,0,0,0,0,178961.0,4646.0
2020-07-19,35045,9800,111,1753,9092,300,359,30046,611,69,120,19,31,80,9,112,28,328,5722,28420,1969,711,194,255,2026,6136,4,1689,52,596,1,1624,249,472,40995,4512,8,22,1,4,6,1,7,0,6,3,13,9,7,6,1,2,3,2,6,2,3,0,2,12,2,2,3,1,0,0,0,0,179028.0,4646.0
2020-07-20,35058,9805,111,1753,9094,308,359,30069,611,69,122,19,31,80,9,113,28,328,5729,28422,1971,711,195,255,2038,6136,4,1691,52,596,1,1627,255,482,41005,4512,8,22,1,4,6,1,7,0,6,3,13,9,7,6,1,2,3,2,6,2,3,0,2,12,2,2,3,1,0,0,0,0,179137.0,4646.0
2020-07-21,35073,9805,111,1753,9099,313,360,30056,611,69,123,19,31,80,9,114,28,328,5736,28424,1972,710,197,255,2074,6136,4,1697,52,596,1,1636,264,491,41030,4512,8,22,1,4,6,1,7,0,6,3,13,9,7,6,1,2,3,2,6,2,3,0,2,14,2,2,3,1,0,0,0,0,179257.0,4648.0
2020-07-22,35082,9808,111,1754,9102,321,364,30063,611,69,125,19,31,80,9,115,28,328,5742,28426,1972,711,200,255,2101,6139,4,1702,52,596,1,1642,268,499,41047,4512,8,22,1,4,6,1,7,0,6,3,13,9,7,6,1,2,3,2,6,2,3,0,2,14,2,2,3,1,0,0,0,0,179377.0,4648.0
2020-07-23,35092,9812,112,1763,9110,329,365,30072,612,69,128,19,31,80,9,115,28,328,5746,28429,1975,711,201,255,2126,6139,4,1705,52,596,1,1651,274,508,41056,4512,8,22,1,4,6,1,7,0,6,3,13,9,7,6,1,2,3,2,6,2,3,0,2,15,2,2,3,1,0,0,0,0,179503.0,4649.0
2020-07-24,35097,9817,112,1763,9120,337,369,30081,613,69,128,19,31,80,9,115,28,329,5747,28432,1977,711,201,255,2150,6139,4,1712,52,596,1,1655,280,518,41088,4512,8,22,1,4,6,1,7,0,6,3,13,9,7,6,1,2,3,2,6,2,3,0,2,16,2,2,3,1,0,0,0,0,179635.0,4650.0
2020-07-25,35102,9821,112,1764,9124,338,369,30081,613,69,133,19,31,80,9,116,28,329,5749,28432,1977,712,201,255,2165,6140,4,1716,52,596,1,1664,280,518,41103,4512,8,22,1,4,6,1,7,0,6,3,13,9,7,6,1,2,3,2,6,2,3,0,2,18,2,2,3,1,0,0,0,0,179703.0,4652.0
2020-07-26,35107,9821,112,1764,9124,340,371,30081,613,69,136,19,31,80,9,116,28,329,5755,28432,1977,712,202,255,2187,6159,4,1717,52,596,1,1671,280,534,41111,4512,8,22,1,4,6,1,7,0,6,3,13,9,7,6,1,2,3,2,6,2,3,0,2,18,2,2,3,1,0,0,0,0,179795.0,4652.0
2020-07-27,35112,9822,112,1764,9125,347,373,30096,613,69,139,19,31,80,9,116,28,329,5759,28434,1978,713,202,255,2206,6141,4,1719,52,596,1,1676,294,543,41114,4512,8,22,1,4,6,1,7,0,6,3,13,9,7,6,1,2,3,2,6,2,3,0,2,22,2,2,3,1,0,0,0,0,179871.0,4656.0
2020-07-28,35123,9833,113,1764,9131,355,374,30109,613,69,140,19,31,80,9,117,28,329,5760,28436,1978,713,203,255,2239,6145,4,1722,52,596,1,1682,297,551,41135,4512,8,22,1,4,6,1,7,0,6,3,13,9,7,6,1,2,3,2,6,2,3,0,2,23,2,2,3,1,0,0,0,0,180006.0,4657.0
2020-07-29,35129,9836,114,1764,9135,368,374,30108,614,69,141,19,31,80,9,117,28,329,5760,28441,1979,716,203,255,2269,6147,4,1725,52,596,1,1694,316,558,41169,4512,8,22,1,4,6,1,7,0,6,3,13,9,7,6,1,2,3,2,6,2,3,0,2,24,2,2,3,1,0,0,0,0,180150.0,4658.0
2020-07-30,35132,9840,114,1763,9144,374,379,30123,615,69,144,19,31,80,9,117,28,329,5763,28443,1980,718,203,255,2304,6147,4,1727,52,596,1,1709,328,565,41169,4512,8,22,1,4,6,1,7,0,6,3,13,9,7,6,1,2,3,2,6,2,3,0,2,25,2,2,3,1,0,0,0,0,180274.0,4659.0
2020-07-31,35141,9841,114,1763,9147,383,382,30150,615,69,145,19,32,80,9,119,29,329,5766,28445,1981,718,206,255,2343,6147,4,1735,52,596,1,1716,339,573,41189,4512,8,22,1,4,6,1,7,0,6,3,13,9,7,6,1,2,3,2,6,2,3,0,2,27,2,2,3,1,0,0,0,0,180433.0,4661.0
2020-08-01,35146,9845,116,1763,9154,385,383,30150,615,69,145,19,32,80,9,119,29,329,5767,28445,1981,718,206,255,2379,6148,4,1737,52,597,1,1721,339,582,41202,4512,8,22,1,4,6,1,7,0,6,3,13,9,7,6,1,2,3,2,6,2,3,0,2,33,2,2,3,1,0,0,0,0,180522.0,4667.0
2020-08-02,35154,9845,117,1763,9154,388,384,30150,615,63,149,19,32,80,9,120,29,329,5772,28445,1981,718,208,255,2413,6149,4,1738,52,597,1,1731,352,590,41207,4512,8,22,1,4,6,1,7,0,6,3,13,9,7,6,1,2,3,2,6,2,3,0,2,35,2,2,3,1,0,0,0,0,180613.0,4669.0
2020-08-03,35166,9850,118,1763,9154,404,386,30149,616,63,153,19,32,80,9,122,29,329,5774,28472,1981,718,209,256,2432,6149,4,1738,52,597,1,1732,362,598,41208,4512,8,22,1,4,6,1,7,0,6,3,13,9,7,6,1,2,3,2,6,2,3,0,2,38,2,2,3,1,0,0,0,0,180725.0,4672.0
2020-08-04,35171,9852,118,1763,9163,415,383,30177,616,63,154,19,32,80,9,123,29,331,5775,28498,1981,719,209,256,2480,6150,4,1739,52,598,1,1738,373,605,41226,4512,8,22,1,4,6,1,7,0,6,3,13,9,7,6,1,2,3,2,6,2,3,0,2,42,2,2,3,1,0,0,0,0,180902.0,4676.0
2020-08-05,35181,9859,118,1763,9179,424,388,30174,616,63,154,19,32,81,9,124,29,331,5780,28499,1984,719,210,256,2521,6153,4,1740,52,599,1,1756,379,614,41240,4512,8,22,1,4,6,1,7,0,6,3,13,9,7,6,1,2,3,2,6,2,3,0,2,43,2,2,3,1,0,0,0,0,181051.0,4677.0
2020-08-06,35187,9861,119,1768,9181,435,390,30185,617,63,155,19,32,81,9,125,29,331,5783,28500,1985,719,210,256,2566,6153,4,1743,52,600,1,1774,384,621,41258,4512,8,22,1,4,6,1,7,0,6,3,13,9,7,6,1,2,3,2,6,2,3,0,2,46,2,2,3,1,0,0,0,0,181196.0,4680.0
2020-08-07,35190,9866,119,1772,9195,442,389,30203,617,63,155,19,32,81,9,125,31,331,5785,28503,1986,720,210,256,2616,6154,4,1746,52,602,1,1787,394,626,41270,4512,8,22,1,4,6,1,7,0,6,3,13,9,7,6,1,2,3,2,6,2,3,0,2,47,2,2,3,1,0,0,0,0,181351.0,4681.0
2020-08-08,35203,9870,120,1772,9201,445,389,30202,617,63,157,19,32,81,9,126,31,331,5789,28503,1986,721,211,256,2659,6157,4,1750,52,602,1,1800,394,632,41273,4512,8,22,1,4,6,1,7,0,6,3,13,9,7,6,1,2,3,2,6,2,3,0,2,47,2,2,3,1,0,0,0,0,181458.0,4681.0
2020-08-09,35205,9872,120,1772,9202,447,390,30202,617,63,157,19,32,81,9,127,31,331,5791,28503,1986,721,212,256,2700,6157,4,1756,52,602,1,1807,394,641,41278,4512,8,22,1,4,6,1,7,0,6,3,13,9,7,6,1,2,3,2,6,2,3,0,2,52,2,2,3,1,0,0,0,0,181538.0,4686.0
2020-08-10,35209,9879,121,1772,9203,459,390,30201,620,63,158,19,32,81,9,128,31,333,5795,28576,1987,723,213,256,2729,6157,4,1759,52,605,1,1809,425,646,41296,4512,8,22,1,4,6,1,7,0,6,3,13,9,7,6,1,2,3,2,6,2,3,0,2,55,2,2,3,1,0,0,0,0,181741.0,4689.0
2020-08-11,35215,9885,122,1773,9208,471,391,30201,621,63,160,20,32,81,9,129,31,333,5798,28581,1990,723,214,256,2764,6141,4,1761,52,605,1,1821,447,652,41309,4512,8,22,1,4,6,1,7,0,6,3,13,9,7,6,1,2,3,2,6,2,3,0,2,59,2,2,3,1,0,0,0,0,181864.0,4693.0
2020-08-12,35225,9900,122,1774,9213,482,391,30247,621,63,160,20,32,81,9,129,31,333,5803,28579,1991,724,216,256,2807,6161,4,1764,53,605,1,1830,453,658,41329,4512,8,22,1,4,6,1,7,0,6,3,13,9,7,6,1,2,3,2,6,2,3,0,2,63,2,2,3,1,0,0,0,0,182067.0,4697.0
2020-08-13,35231,9916,122,1774,9217,482,391,30263,621,63,161,20,32,81,9,129,31,333,5803,28605,1991,725,221,257,2860,6165,4,1770,53,607,1,1844,458,661,41347,4512,8,22,1,4,6,1,7,0,6,3,13,9,7,6,1,2,3,2,6,2,3,0,2,66,2,2,3,1,0,0,0,0,182248.0,4700.0
2020-08-14,35234,9924,122,1774,9230,492,394,30279,621,63,163,20,32,81,9,129,31,333,5804,28617,1991,725,223,261,2904,6167,4,1772,53,607,1,1858,469,665,41358,4512,8,22,1,4,6,1,7,0,6,3,13,9,7,6,1,2,3,2,6,2,3,0,2,67,2,2,3,1,0,0,0,0,182410.0,4701.0
2020-08-15,35392,9935,123,1774,9235,495,395,30279,621,63,165,20,32,81,9,129,31,333,5804,28617,1991,728,226,261,2954,6169,4,1775,53,607,1,1869,471,670,41361,4512,8,22,1,4,6,1,7,0,6,3,13,9,7,6,1,2,3,2,6,2,3,0,2,69,2,2,3,1,0,0,0,0,182673.0,4703.0
2020-08-16,35396,9939,123,1774,9235,498,397,30279,621,63,166,20,32,81,9,129,31,333,5806,28617,1991,728,228,261,2991,6172,4,1778,53,608,1,1877,471,674,41366,4512,8,22,1,4,6,1,7,0,6,3,13,9,7,6,1,2,3,2,6,2,3,0,2,69,2,2,3,1,0,0,0,0,182752.0,4703.0
2020-08-17,35400,9944,124,1774,9236,512,399,30302,621,63,166,20,32,81,9,129,31,334,5812,28646,1991,729,230,261,3029,6172,4,1779,53,608,1,1885,486,677,41369,4512,8,22,1,4,6,1,7,0,6,3,13,9,7,6,1,2,3,2,6,2,3,0,2,69,2,2,3,1,0,0,0,0,182909.0,4703.0
2020-08-18,35405,9959,124,1775,9241,519,401,30301,621,63,166,20,33,81,9,129,31,334,5813,28670,1992,729,232,262,3074,6175,4,1784,53,609,1,1896,495,681,41381,4512,8,22,1,4,6,1,7,0,6,3,13,9,7,6,1,2,3,2,6,2,3,0,2,71,2,2,3,1,0,0,0,0,183063.0,4705.0
2020-08-19,35412,9969,124,1775,9249,527,404,30300,621,63,168,20,33,81,9,129,33,334,5814,28797,1996,729,235,262,3106,6181,4,1786,53,609,1,1913,507,684,41397,4512,8,22,1,4,6,1,7,0,6,3,13,9,7,6,1,2,3,2,6,2,3,0,2,72,2,2,3,1,0,0,0,0,183325.0,4706.0
2020-08-20,35418,9976,124,1776,9263,532,406,30300,621,63,168,20,33,82,9,129,33,334,5815,28813,1998,729,235,264,3154,6191,4,1788,53,609,1,1925,515,689,41403,4512,8,22,1,4,6,1,7,0,6,3,13,9,7,6,1,2,3,2,6,2,3,0,2,75,2,2,3,1,0,0,0,0,183473.0,4709.0
2020-08-21,35427,9985,124,1776,9266,539,411,30373,621,63,169,20,33,83,10,130,33,334,5816,28838,2000,730,238,264,3196,6195,4,1792,53,611,1,1938,526,692,41405,4512,8,22,1,4,6,1,7,0,6,3,13,9,7,6,1,2,3,2,6,2,3,0,2,75,2,2,3,1,0,0,0,0,183696.0,4709.0
2020-08-22,35430,9988,124,1777,9272,539,411,30381,622,63,170,20,33,84,10,131,33,334,5816,28838,2000,732,240,264,3233,6200,4,1794,53,611,1,1951,532,695,41423,4512,8,22,1,4,6,1,7,0,6,3,13,9,7,6,1,2,3,2,6,2,3,0,2,77,2,2,3,1,0,0,0,0,183809.0,4711.0
2020-08-23,35437,9992,124,1777,9275,545,412,30382,622,63,171,20,33,84,10,131,33,334,5816,28838,2001,732,242,264,3272,6200,4,1796,53,613,1,1955,532,698,41429,4512,8,22,1,4,6,1,7,0,6,3,13,9,7,6,1,2,3,2,6,2,3,0,2,77,2,2,3,1,0,0,0,0,183891.0,4711.0
2020-08-24,35441,9996,124,1777,9276,563,415,30396,623,64,173,20,33,85,10,133,33,335,5816,28872,2001,733,242,264,3309,6202,4,1801,53,613,1,1960,547,701,41433,4512,8,22,1,4,6,1,7,0,6,3,13,9,7,6,1,2,3,2,6,2,3,0,2,77,2,2,3,1,0,0,0,0,184049.0,4711.0
2020-08-25,35445,9996,124,1777,9281,572,416,30412,623,64,175,20,33,85,10,133,33,335,5816,28924,2002,733,243,264,3367,6207,4,1805,53,614,1,1977,560,705,41449,4512,8,22,1,4,6,1,7,0,6,3,13,9,7,6,1,2,3,2,6,2,3,0,2,78,2,2,3,1,0,0,0,0,184258.0,4712.0
2020-08-26,35458,9879,124,1777,9285,586,418,30412,623,64,175,20,33,85,10,133,33,335,5816,28971,2003,733,248,264,3421,6215,4,1807,53,614,1,1994,571,707,41465,4512,8,22,1,4,6,1,7,0,6,3,13,9,7,6,1,2,3,2,6,2,3,0,2,79,2,2,3,1,0,0,0,0,184337.0,4713.0
2020-08-27,35463,9884,124,1777,9290,594,418,30441,624,64,177,20,34,85,10,133,33,335,5820,28996,2003,733,254,264,3459,6218,4,1809,53,614,1,2010,582,707,41477,4512,8,22,1,4,6,1,7,0,6,3,13,9,7,6,1,2,3,2,6,2,3,0,2,81,2,2,3,1,0,0,0,0,184510.0,4715.0
2020-08-28,35472,9886,124,1777,9290,603,419,30460,624,64,180,20,34,86,10,133,33,335,5821,29011,2004,733,259,264,3507,6220,4,1815,53,614,1,2018,591,709,41486,4512,8,22,1,4,6,1,7,0,6,3,13,9,7,6,1,2,3,2,6,2,3,0,2,84,2,2,3,1,0,0,0,0,184660.0,4718.0
2020-08-29,35473,9891,124,1777,9299,605,421,30460,624,64,183,20,34,86,10,133,33,335,5821,29011,2005,733,260,264,3539,6224,4,1818,53,614,1,2032,594,710,41498,4512,8,22,1,4,6,1,7,0,6,3,13,9,7,6,1,2,3,2,6,2,3,0,2,87,2,2,3,1,0,0,0,0,184753.0,4721.0
2020-08-30,35477,9894,124,1777,9300,613,423,30470,624,64,184,20,34,86,12,133,33,335,5821,29011,2005,733,262,264,3578,6224,4,1819,53,614,1,2033,598,711,41499,4512,8,22,1,4,6,1,7,0,6,3,13,9,7,6,1,2,3,2,6,2,3,0,2,88,2,2,3,1,0,0,0,0,184833.0,4722.0
2020-08-31,35483,9895,124,1777,9303,629,424,30495,624,64,186,20,34,86,12,133,33,336,5808,29094,2006,733,266,264,3621,6224,4,1822,53,615,1,2039,609,713,41501,4512,8,22,1,4,6,1,7,0,6,3,13,9,7,6,1,2,3,2,6,2,3,0,2,89,2,2,3,1,0,0,0,0,185031.0,4723.0
2020-09-01,35491,9897,124,1777,9307,642,425,30518,625,64,187,21,34,86,12,133,33,336,5813,29152,2011,734,271,264,3681,6230,4,1824,53,616,1,2058,620,715,41504,4512,8,22,1,4,6,1,7,0,6,3,13,9,7,6,1,2,3,2,6,2,3,0,2,90,2,2,3,1,0,0,0,0,185263.0,4724.0
2020-09-02,35497,9898,124,1777,9322,648,425,30539,626,64,191,21,34,86,13,134,33,336,5820,29194,2011,734,273,264,3721,6235,1,1827,53,619,1,2078,627,716,41514,4512,8,22,1,4,6,1,7,0,6,3,13,9,7,6,1,2,3,2,6,2,3,0,2,93,2,2,3,1,0,0,0,0,185456.0,4727.0
2020-09-03,35507,9899,124,1777,9322,658,426,30559,626,64,194,21,34,86,13,134,37,336,5832,29234,2013,735,278,264,3765,6235,1,1829,53,620,1,2092,636,718,41527,4512,8,22,1,4,6,1,7,0,6,3,13,9,7,6,1,2,3,2,6,2,3,0,2,94,2,2,3,1,0,0,0,0,185650.0,4728.0
2020-09-04,35518,9901,124,1777,9327,665,429,30576,627,64,195,21,35,86,13,134,37,336,5835,29418,2013,735,279,264,3812,6237,1,1833,53,621,1,2100,639,721,41537,4512,8,22,1,4,6,1,7,0,6,3,13,9,7,6,1,2,3,2,6,2,3,0,2,94,2,2,3,1,0,0,0,0,185964.0,4728.0
2020-09-05,35534,9906,124,1777,9329,671,431,30575,627,64,197,21,35,86,14,135,37,336,5835,29418,2013,735,280,264,3850,6241,1,1838,53,624,1,2113,651,723,41549,4512,8,22,1,4,6,1,7,0,6,3,13,9,7,6,1,2,3,2,6,2,3,0,2,94,2,2,3,1,0,0,0,0,186088.0,4728.0
2020-09-06,35541,9907,124,1777,9330,676,436,30573,627,64,198,21,35,86,14,135,37,336,5835,29418,2013,736,284,264,3893,6243,1,1840,53,624,1,2120,655,724,41551,4512,8,22,1,4,6,1,7,0,6,3,13,9,7,6,1,2,3,2,6,2,3,0,2,96,2,2,3,1,0,0,0,0,186172.0,4730.0
2020-09-07,35553,9909,124,1777,9331,677,437,30575,628,64,201,22,35,86,14,135,37,336,5837,29516,2014,746,289,264,3926,6243,1,1843,53,625,1,2124,664,725,41554,4512,8,22,1,4,6,1,7,0,6,3,13,9,7,6,1,2,3,2,6,2,3,0,2,98,2,2,3,1,0,0,0,0,186366.0,4732.0
2020-09-08,35563,9912,124,1778,9336,692,441,30613,628,64,203,22,35,86,14,135,37,336,5838,29594,2018,747,290,264,3967,6244,1,1846,53,626,1,2136,669,727,41586,4512,8,22,1,4,6,1,7,0,6,3,13,9,7,6,1,2,3,2,6,2,3,0,2,99,2,2,3,1,0,0,0,0,186626.0,4733.0
2020-09-09,35577,9917,124,1781,9342,702,444,30643,628,64,206,22,35,86,14,135,37,337,5842,29628,2019,747,293,264,4018,6246,1,1849,53,628,1,2147,675,728,41594,4512,8,22,1,4,6,1,7,0,6,3,13,9,7,6,1,2,3,2,6,2,3,0,2,99,2,2,3,1,0,0,0,0,186827.0,4733.0
2020-09-10,35587,9917,124,1781,9345,706,448,30656,629,64,208,22,35,86,14,135,37,337,5843,29699,2020,748,297,265,4065,6249,1,1852,53,630,1,2159,680,729,41608,4512,8,22,1,4,6,1,7,0,6,3,13,9,7,6,1,2,3,2,6,2,3,0,2,99,2,2,3,1,0,0,0,0,187030.0,4733.0
2020-09-11,35597,9919,124,1781,9348,713,450,30735,629,64,211,22,35,86,15,135,37,337,5846,29747,2020,750,300,265,4100,6252,1,1855,53,631,1,2169,686,730,41614,4512,8,22,1,4,6,1,7,0,6,3,13,9,7,6,1,2,3,2,6,2,3,0,2,99,2,2,3,1,0,0,0,0,187258.0,4733.0
2020-09-12,35603,9923,124,1783,9352,717,453,30735,630,64,218,22,35,86,15,135,38,337,5846,29747,2020,754,302,265,4127,6253,1,1860,53,633,1,2182,690,731,41623,4512,8,22,1,4,6,1,7,0,6,3,13,9,7,6,1,2,3,2,6,2,3,0,2,100,2,2,3,1,0,0,0,0,187358.0,4734.0
2020-09-13,35610,9925,124,1784,9354,720,456,30735,631,64,224,22,35,87,15,135,38,337,5846,29747,2021,756,305,265,4163,6254,1,1867,53,637,1,2188,696,733,41628,4512,8,22,1,4,6,1,7,0,6,3,13,9,7,6,1,2,3,2,6,2,3,0,2,100,2,2,3,1,0,0,0,0,187457.0,4734.0
2020-09-14,35624,9927,124,1784,9356,729,465,30790,633,64,227,22,35,87,16,135,38,337,5846,29848,2025,757,310,265,4185,6256,1,1871,53,642,1,2203,705,733,41637,4512,8,22,1,4,6,1,7,0,6,3,13,9,7,6,1,2,3,2,6,2,3,0,2,101,2,2,3,1,0,0,0,0,187731.0,4735.0
2020-09-15,35633,9930,124,1787,9367,736,476,30838,633,64,230,22,35,87,16,135,38,339,5851,30004,2028,757,313,265,4236,6258,1,1875,53,646,1,2227,725,735,41664,4512,8,22,1,4,6,1,7,0,6,3,13,9,7,6,1,2,3,2,6,2,3,0,2,102,2,2,3,1,0,0,0,0,188129.0,4736.0
2020-09-16,35645,9935,124,1788,9373,739,482,30884,633,64,236,22,35,87,16,135,38,339,5860,30243,2039,758,316,265,4285,6260,1,1878,53,654,1,2237,736,736,41684,4512,8,22,1,4,6,1,7,0,6,3,13,9,7,6,1,2,3,2,6,2,3,0,2,102,2,2,3,1,0,0,0,0,188581.0,4736.0
2020-09-17,35658,9936,124,1789,9376,749,489,30931,635,64,238,22,36,87,16,136,39,339,5864,30405,2042,758,325,266,4312,6266,1,1888,53,663,1,2253,747,738,41705,4512,8,22,1,4,6,1,7,0,6,3,13,9,7,6,1,2,3,2,6,2,3,0,2,102,2,2,3,1,0,0,0,0,188951.0,4736.0
2020-09-18,35668,9937,124,1792,9386,753,495,31085,635,64,244,22,36,87,17,140,39,339,5865,30495,2045,763,327,267,4360,6273,1,1894,53,669,1,2270,752,739,41732,4512,8,22,1,4,6,1,7,0,6,3,13,9,7,6,1,2,3,2,6,2,3,0,2,103,2,2,3,1,0,0,0,0,189369.0,4737.0
2020-09-19,35692,9944,124,1792,9388,755,499,31085,635,64,244,22,36,87,19,141,39,339,5865,30495,2045,765,331,267,4402,6275,1,1899,53,675,1,2282,758,740,41759,4512,8,22,1,4,6,1,7,0,6,3,13,9,7,6,1,2,3,2,6,2,3,0,2,103,2,2,3,1,0,0,0,0,189518.0,4737.0
2020-09-20,35707,9948,124,1792,9390,761,503,31085,638,64,248,22,36,87,20,142,39,339,5865,30495,2045,766,338,267,4435,6279,1,1912,53,683,1,2293,763,741,41777,4512,8,22,1,4,6,1,7,0,6,3,13,9,7,6,1,2,3,2,6,2,3,0,2,103,2,2,3,1,0,0,0,0,189659.0,4737.0
2020-09-21,35724,9950,124,1792,9390,765,522,31174,640,64,253,22,36,87,23,142,39,341,5865,30663,2050,767,344,267,4458,6281,1,1920,53,686,1,2298,770,743,41788,4512,8,22,1,4,6,1,7,0,6,3,13,9,7,6,1,2,3,2,6,2,3,0,2,103,2,2,3,1,0,0,0,0,190043.0,4737.0
2020-09-22,35738,9955,124,1792,9405,767,531,31252,641,64,255,22,36,87,23,142,40,341,5870,30904,2054,771,352,267,4503,6291,1,1925,53,694,1,2316,778,743,41825,4512,8,22,1,4,6,1,7,0,6,3,13,9,7,6,1,2,3,2,6,2,3,0,2,103,2,2,3,1,0,0,0,0,190563.0,4737.0
2020-09-23,35758,9959,124,1794,9423,779,555,31252,643,64,257,22,36,87,25,143,41,343,5876,31034,2060,777,357,267,4550,6296,1,1928,53,702,1,2344,790,744,41862,4512,8,22,1,4,6,1,7,0,6,3,13,9,7,6,1,2,3,2,6,2,3,0,2,104,2,2,3,1,0,0,0,0,190947.0,4738.0
2020-09-24,35781,9965,124,1797,9436,785,567,31333,645,64,261,22,36,89,27,145,41,343,5878,31118,2061,783,366,270,4591,6312,1,1931,53,709,1,2369,802,745,41902,4512,8,22,1,4,6,1,7,0,6,3,13,9,7,6,1,2,3,2,6,2,3,0,2,104,2,2,3,1,0,0,0,0,191353.0,4738.0
2020-09-25,35801,9969,124,1797,9451,789,581,31483,647,64,266,22,36,89,29,145,41,343,5880,31232,2064,786,369,270,4633,6328,2,1936,53,718,1,2392,808,746,41936,4512,8,22,1,4,6,1,7,0,6,3,13,9,7,6,1,2,3,2,6,2,3,0,2,105,2,2,3,1,0,0,0,0,191831.0,4739.0
2020-09-26,35818,9974,124,1802,9459,789,591,31483,648,64,269,22,36,89,31,146,44,343,5880,31232,2064,787,376,270,4687,6366,2,1944,53,730,1,2424,820,746,41971,4512,8,22,1,4,6,1,7,0,6,3,13,9,7,6,1,2,3,2,6,2,3,0,2,105,2,2,3,1,0,0,0,0,192085.0,4739.0
2020-09-27,35835,9980,124,1802,9464,796,606,31483,649,64,272,22,36,91,31,147,44,343,5880,31232,2064,787,379,270,4718,6374,2,1953,53,736,1,2432,822,747,41988,4512,8,22,1,4,6,1,7,0,6,3,13,9,7,6,1,2,3,2,6,2,3,0,2,105,2,2,3,1,0,0,0,0,192227.0,4739.0
2020-09-28,35851,9987,124,1802,9468,807,618,31549,649,64,272,22,36,92,32,149,44,345,5880,31411,2065,790,383,274,4748,6380,2,1957,53,749,1,2447,829,748,42001,4512,8,22,1,4,6,1,7,0,6,3,13,9,7,6,1,2,3,2,6,2,3,0,2,105,2,2,3,1,0,0,0,0,192629.0,4739.0
2020-09-29,35875,10001,124,1803,9483,813,636,31711,650,64,275,22,37,92,34,149,45,345,5890,31411,2069,796,388,274,4792,6393,2,1963,53,757,1,2483,843,749,42072,4512,8,22,1,4,6,1,7,0,6,3,13,9,7,6,1,2,3,2,6,2,3,0,2,105,2,2,3,1,0,0,0,0,193095.0,4739.0
2020-09-30,35894,10016,124,1804,9495,825,655,31769,650,64,280,22,37,92,35,150,48,344,5893,31791,2074,799,391,274,4825,6406,2,1971,53,765,1,2513,856,749,42143,4512,8,22,1,4,6,1,7,0,6,3,13,9,7,6,1,2,3,2,6,2,3,0,2,105,2,2,3,1,0,0,0,0,193810.0,4739.0
2020-10-01,35918,10023,125,1806,9509,825,678,31816,651,65,284,22,37,92,35,152,48,344,5893,31973,2074,802,393,274,4862,6419,2,1977,53,781,1,2543,861,750,42202,4512,8,22,1,4,6,1,7,0,6,3,13,9,7,6,1,2,3,2,6,2,3,0,2,105,2,2,3,1,0,0,0,0,194290.0,4739.0
2020-10-02,35941,10037,125,1801,9518,838,699,31952,652,66,291,22,38,93,37,154,54,345,5895,32086,2075,803,398,275,4915,6428,2,1983,53,798,1,2570,871,751,42268,4512,8,22,1,4,6,1,7,0,6,3,13,9,7,6,1,2,3,2,6,2,3,0,2,105,2,2,3,1,0,0,0,0,194835.0,4739.0
2020-10-03,35968,10044,125,1810,9531,841,711,31952,654,67,293,22,38,94,38,155,54,345,5895,32086,2076,809,405,275,4947,6449,2,1995,53,812,1,2604,871,753,42317,4512,8,22,1,4,6,1,7,0,6,3,13,9,7,6,1,2,3,2,6,2,3,0,2,105,2,2,3,1,0,0,0,0,195092.0,4739.0
2020-10-04,35986,10064,125,1810,9533,844,727,31952,658,67,298,22,38,94,39,155,55,345,5895,32086,2077,813,409,275,5003,6454,2,2005,53,822,1,2630,879,754,42350,4512,8,22,1,4,6,1,7,0,6,3,13,9,7,6,1,2,3,2,6,2,3,0,2,105,2,2,3,1,0,0,0,0,195320.0,4739.0
2020-10-05,36002,10078,127,1810,9554,854,758,32096,659,67,300,22,39,94,39,156,55,346,5895,32225,2078,818,417,275,5048,6454,2,2018,53,833,1,2659,888,756,42369,4512,8,22,1,4,6,1,7,0,6,3,13,9,7,6,1,2,3,2,6,2,3,0,2,105,2,2,3,1,0,0,0,0,195845.0,4739.0
2020-10-06,36030,10092,128,1811,9566,862,794,32140,663,67,304,23,40,99,40,159,55,346,5883,32486,2081,822,420,275,5121,6482,2,2032,53,853,1,2717,903,757,42445,4512,8,22,1,4,6,1,7,0,6,3,13,9,7,6,1,2,3,2,6,2,3,0,2,105,2,2,3,1,0,0,0,0,196552.0,4739.0
2020-10-07,36061,10108,128,1816,9582,873,829,32219,663,67,309,24,40,101,41,159,55,346,5892,32562,2082,830,424,275,5203,6518,2,2040,53,877,1,2792,908,758,42515,4512,8,22,1,4,6,1,7,0,6,3,13,9,7,6,1,2,3,2,6,2,3,0,2,105,2,2,3,1,0,0,0,0,197153.0,4739.0
2020-10-08,36083,10126,129,1817,9594,880,869,32295,665,67,310,24,40,102,41,160,57,346,5892,32688,2087,838,430,275,5247,6531,2,2050,54,898,1,2867,913,760,42592,4512,8,22,1,4,6,1,7,0,6,3,13,9,7,6,1,2,3,2,6,2,3,0,2,105,2,2,3,1,0,0,0,0,197730.0,4739.0
2020-10-09,36111,10151,130,1821,9599,887,905,32356,665,68,313,25,40,103,41,165,57,346,5894,32929,2088,842,431,275,5299,6544,2,2062,55,913,1,2919,926,761,42679,4512,8,22,1,4,6,1,7,0,6,3,13,9,7,6,1,2,3,2,6,2,3,0,2,105,2,2,3,1,0,0,0,0,198403.0,4739.0
2020-10-10,36140,10175,131,1824,9620,891,948,32356,667,68,317,25,40,103,41,167,61,346,5894,32929,2088,852,436,275,5358,6567,2,2067,55,933,1,2972,927,762,42760,4512,8,22,1,4,6,1,7,0,6,3,13,9,7,6,1,2,3,2,6,2,3,0,2,105,2,2,3,1,0,0,0,0,198798.0,4739.0
2020-10-11,36166,10191,132,1826,9626,892,987,32356,669,68,324,25,40,103,41,167,61,346,5894,32929,2088,851,449,275,5411,6584,2,2080,55,954,1,3004,928,763,42825,4512,8,22,1,4,6,1,7,0,6,3,13,9,7,6,1,2,3,2,6,2,3,0,2,105,2,2,3,1,0,0,0,0,199113.0,4739.0
2020-10-12,36205,10211,133,1827,9640,915,1051,32456,671,68,327,25,40,103,43,169,61,346,5894,33124,2096,855,456,276,5467,6596,2,2094,57,968,1,3039,936,765,42875,4512,8,22,1,4,6,1,7,0,6,3,13,9,7,6,1,2,3,2,6,2,3,0,2,105,2,2,3,1,0,0,0,0,199792.0,4739.0
2020-10-13,36246,10244,133,1830,9682,923,1106,32714,674,68,330,25,41,106,44,173,61,346,5899,33204,2103,861,462,277,5535,6631,2,2110,57,996,1,3101,947,767,43018,4512,8,22,1,4,6,1,7,0,6,3,13,9,7,6,1,2,3,2,6,2,3,0,2,105,2,2,3,1,0,0,0,0,200717.0,4739.0
2020-10-14,36289,10278,133,1835,9716,929,1172,32788,675,68,334,25,41,109,44,175,66,350,5907,33413,2109,872,469,277,5601,6663,2,2117,59,1023,1,3217,958,768,43155,4512,8,22,1,4,6,1,7,0,6,3,13,9,7,6,1,2,3,2,6,2,3,0,2,105,2,2,3,1,0,0,0,0,201638.0,4739.0
2020-10-15,36372,10327,133,1838,9739,944,1230,32876,677,68,344,25,41,110,45,176,71,350,5910,33553,2115,877,482,278,5674,6692,2,2128,59,1052,1,3308,972,770,43293,4512,8,22,1,4,6,1,7,0,6,3,13,9,7,6,1,2,3,2,6,2,3,0,2,105,2,2,3,1,0,0,0,0,202532.0,4739.0
2020-10-16,36427,10359,133,1841,9773,958,1283,33054,677,68,345,25,42,112,45,180,71,351,5918,33775,2122,882,490,278,5749,6708,2,2149,59,1085,1,3440,980,772,43429,4512,8,22,1,4,6,1,7,0,6,3,13,9,7,6,1,2,3,2,6,2,3,0,2,105,2,2,3,1,0,0,0,0,203583.0,4739.0
2020-10-17,36474,10392,133,1849,9785,968,1352,33054,679,68,355,25,43,113,45,184,82,351,5918,33775,2122,889,500,278,5812,6737,2,2162,59,1109,1,3524,981,774,43579,4512,8,22,1,4,6,1,7,0,6,3,13,9,7,6,1,2,3,2,6,2,3,0,2,105,2,2,3,1,0,0,0,0,204174.0,4739.0
2020-10-18,36543,10413,133,1852,9798,986,1422,33054,680,68,363,25,44,113,45,188,88,351,5918,33775,2123,893,509,278,5872,6751,2,2181,59,1142,1,3573,984,776,43646,4512,8,22,1,4,6,1,7,0,6,3,13,9,7,6,1,2,3,2,6,2,3,0,2,105,2,2,3,1,0,0,0,0,204649.0,4739.0
2020-10-19,36616,10443,135,1852,9842,1008,1513,33374,686,68,374,25,44,113,45,190,92,351,5918,33992,2138,904,520,278,5931,6768,2,2198,62,1173,1,3614,997,778,43726,4512,8,22,1,4,6,1,7,0,6,3,13,9,7,6,1,2,3,2,6,2,3,0,2,105,2,2,3,1,0,0,0,0,205771.0,4739.0
2020-10-20,36705,10489,136,1865,9882,1019,1619,33636,688,71,382,25,47,118,46,192,98,351,5922,34210,2145,914,528,278,5996,6814,2,2213,62,1211,1,3721,1017,780,43967,4512,8,22,1,4,6,1,7,0,6,3,13,9,7,6,1,2,3,2,6,2,3,0,2,105,2,2,3,1,0,0,0,0,207150.0,4739.0
2020-10-21,36832,10539,138,1868,9911,1048,1739,33777,690,71,393,25,47,120,46,200,98,355,5929,34366,2039,925,534,279,6065,6873,2,2229,63,1259,1,3851,1031,780,44158,4512,8,22,1,4,6,1,7,0,6,3,13,9,7,6,1,2,3,2,6,2,3,0,2,105,2,2,3,1,0,0,0,0,208281.0,4739.0
2020-10-22,36968,10588,140,1871,9960,1064,1845,33939,694,71,406,25,49,125,49,211,115,355,5930,34521,2046,941,549,279,6163,6919,2,2245,63,1305,1,4019,1051,783,44347,4512,8,22,1,4,6,1,7,0,6,3,13,9,7,6,1,2,3,2,6,2,3,0,2,105,2,2,3,1,0,0,0,0,209639.0,4739.0
2020-10-23,37059,10658,141,1878,9978,1077,1971,34236,697,73,413,25,50,126,49,214,134,353,5933,34752,2067,954,559,279,6245,6964,2,2276,69,1352,1,4172,1065,786,44571,4512,8,22,1,4,6,1,7,0,6,3,13,9,7,6,1,2,3,2,6,2,3,0,2,105,2,2,3,1,0,0,0,0,211179.0,4739.0
2020-10-24,37210,10737,141,1882,10035,1084,2077,34236,700,73,429,25,54,129,50,235,159,353,5934,34752,2081,965,564,279,6318,7019,2,2297,69,1390,1,4351,1075,789,44745,4512,8,22,1,4,6,1,7,0,6,3,13,9,7,6,1,2,3,2,6,2,3,0,2,105,2,2,3,1,0,0,0,0,212240.0,4739.0
2020-10-25,37338,10810,141,1882,10062,1094,2201,34236,702,73,437,25,56,134,51,240,159,353,5941,34752,2083,979,574,279,6391,7046,2,2316,69,1425,1,4438,1086,792,44896,4512,8,22,1,4,6,1,7,0,6,3,13,9,7,6,1,2,3,2,6,2,3,0,2,105,2,2,3,1,0,0,0,0,213064.0,4739.0
2020-10-26,37479,10899,147,1885,10091,1136,2365,34746,708,73,452,25,60,136,53,251,165,354,5951,35031,2111,992,581,279,6470,7072,2,2343,72,1472,1,4483,1104,793,44998,4512,8,22,1,4,6,1,7,0,6,3,13,9,7,6,1,2,3,2,6,2,3,0,2,105,2,2,3,1,0,0,0,0,214780.0,4739.0
2020-10-27,37700,11038,147,1890,10121,1161,2547,35268,709,73,470,25,63,141,55,264,176,354,5959,35298,2147,1005,593,280,6574,7142,2,2371,72,1535,1,4615,1125,798,45365,4512,8,22,1,4,6,1,7,0,6,3,13,9,7,6,1,2,3,2,6,2,3,0,2,105,2,2,3,1,0,0,0,0,217084.0,4739.0
2020-10-28,37905,11170,147,1896,10218,1197,2675,35493,715,73,493,25,63,144,56,278,184,354,5963,35466,2158,1027,603,280,6681,7202,2,2395,72,1578,1,4849,1161,803,45675,4512,8,22,1,4,6,1,7,0,6,3,13,9,7,6,1,2,3,2,6,2,3,0,2,105,2,2,3,1,0,0,0,0,219002.0,4739.0
2020-10-29,38122,11308,150,1902,10305,1225,2862,35728,716,73,511,25,64,150,59,292,200,354,5966,35639,2200,1056,615,281,6764,7258,2,2428,73,1634,1,5149,1182,809,45955,4512,8,22,1,4,6,1,7,0,6,3,13,9,7,6,1,2,3,2,6,2,3,0,2,105,2,2,3,1,0,0,0,0,221058.0,4739.0
2020-10-30,38321,11452,152,1908,10391,1254,3078,36273,719,73,531,25,69,157,61,315,212,358,5972,35878,2277,1082,620,282,6867,7345,2,2468,75,1699,2,5351,1212,814,46229,4512,8,22,1,4,6,1,7,0,6,3,13,9,7,6,1,2,3,2,6,2,3,0,2,105,2,2,3,1,0,0,0,0,223524.0,4739.0
2020-10-31,38618,11625,152,1913,10483,1279,3251,36494,721,73,546,26,71,165,62,338,219,358,5977,35878,2297,1109,626,282,6968,7395,2,2507,75,1750,3,5631,1234,820,46555,4512,8,22,1,4,6,1,7,0,6,3,13,9,7,6,1,2,3,2,6,2,3,0,2,105,2,2,3,1,0,0,0,0,225503.0,4739.0
2020-11-01,38826,11737,152,1915,10513,1298,3429,36725,723,73,562,26,74,166,64,363,219,358,5980,35878,2326,1130,635,282,7067,7434,2,2544,75,1819,3,5783,1248,826,46717,4512,8,22,1,4,6,1,7,0,6,3,13,9,7,6,1,2,3,2,6,2,3,0,2,105,2,2,3,1,0,0,0,0,226972.0,4739.0
2020-11-02,39059,11858,160,1917,10669,1349,3654,37141,724,73,594,27,77,170,66,388,219,359,5987,36257,2404,1159,642,282,7153,7463,2,2590,75,1889,3,5875,1280,833,46853,4512,8,22,1,4,6,1,7,0,6,3,13,9,7,6,1,2,3,2,6,2,3,0,2,105,2,2,3,1,0,0,0,0,229251.0,4739.0
2020-11-03,39412,12126,167,1922,10717,1412,3913,37564,728,73,628,27,79,175,64,412,235,359,5989,36495,2471,1192,655,282,7273,7576,2,2635,75,1973,3,6102,1317,844,47250,4512,8,22,1,4,6,1,7,0,6,3,13,9,7,6,1,2,3,2,6,2,3,0,2,105,2,2,3,1,0,0,0,0,232147.0,4739.0
2020-11-04,39764,12331,171,1930,10949,1466,4133,38370,729,73,654,27,85,182,65,441,261,361,5997,38118,2555,1227,673,282,7419,7682,2,2694,75,2063,3,6475,1358,850,47742,4512,8,22,1,4,6,1,7,0,6,3,13,9,7,6,1,2,3,2,6,2,3,0,2,106,2,2,3,1,0,0,0,0,237207.0,4740.0
2020-11-05,40192,12520,177,1933,11110,1518,4330,38730,733,73,683,27,88,186,70,471,286,361,6002,38486,2628,1268,702,284,7540,7769,2,2740,75,2147,3,6842,1402,861,48120,4512,8,22,1,4,6,1,7,0,6,3,13,9,7,6,1,2,3,2,6,2,3,0,2,107,2,2,3,1,0,0,0,0,240359.0,4741.0
2020-11-06,40638,12708,180,1940,11240,1576,4484,39557,738,73,717,27,95,192,73,497,317,362,6022,38833,2710,1340,715,285,7663,7887,2,2792,75,2250,3,7287,1457,871,48475,4512,8,22,1,4,6,1,7,0,6,3,13,9,7,6,1,2,3,2,6,2,3,0,2,107,2,2,3,1,0,0,0,0,244081.0,4741.0
2020-11-07,41063,12907,180,1945,11306,1632,4681,39861,740,73,752,35,96,203,74,531,351,362,6022,38833,2749,1377,749,285,7793,7960,2,2848,75,2357,3,7636,1490,880,48888,4512,8,22,1,4,6,1,7,0,6,3,13,9,7,6,1,2,3,2,6,2,3,0,2,107,2,2,3,1,0,0,0,0,246739.0,4741.0
